{
	"thisLanguage": "DE",
	"Access is denied": "Zugriff verweigert",
	"All rights reserved": "Alle rechte vorbehalten",
	"Download mobile app": "App herunterladen",
	"Attach file": "Datei anhängen",
	"Click on this area or drag file(s) to it": "Klicken Sie auf oder ziehen Sie die Datei (en) darauf.",
	"Upload selected file(s)": "Ausgewählte Datei (en) herunterladen",
	"Clean Games": "Net Spiele",
	"Go back to the previous page": "Zur vorherigen Seite zurückkehren",
	"Go back to the main page": "Zurück zur Hauptseite",
	"Go back to the game page": "Zur Spieleseite",
	"Go back to the tournament page": "Zur Turnierseite",
	"Play": "Zu spielen",
	"Create Game": "Spiel erstellen",
	"Create purchase": "Erstellen Sie kaufen",
	"Game editing": "Spiel bearbeiten",
	"Tournament editing": "Turnierbearbeitung",
	"World": "Die Welt",
	"Country": {
		"RU": "Russland",
		"UA": "Ukraine"
	},
	"About us": "Über das Projekt",
	"Championship": "Meisterschaft",
	"Tournaments": "Turniere",
	"Organize": "Zu organisieren",
	"Organization": "Organisation",
	"Help": "Zu helfen",
	"Search": "Suche",
	"Search team": "Teamsuche",
	"Search by team": "Teamsuche",
	"Search by name": "Suche nach Namen",
	"Search by city": "Suche nach Stadt",
	"Type name of the city": "Geben Sie den Namen der Stadt ein und drücken Sie die Eingabetaste",
	"Type name of the game you want to find": "Geben Sie den Namen des Spiels ein, das Sie suchen möchten",
	"For business": "Geschäft",
	"For governments": "An die Behörden",
	"Contacts": "Kontaktdaten",
	"Instructions": "Anleitung",
	"Remove": "Löschen",
	"Remove file": "Datei löschen",
	"Edit": "Bearbeiten",
	"Save": "Speichern",
	"Main page": "Zuhause",
	"Main info": "Grundlegende Informationen",
	"Tabs": "Tabs",
	"or use social network account": "oder verwenden Sie ein soziales Netzwerkkonto",
	"Profile": "Profil",
	"Repeat password": "Wiederholen Sie das Passwort",
	"New password": "Neues Passwort",
	"Repeat new password": "Geben Sie das neue Passwort erneut ein",
	"Type new password": "Geben Sie ein neues Passwort ein",
	"Type your current password": "Aktuelles Passwort eingeben",
	"Free space for notes": "Freier Platz für Notizen",
	"Change password": "Passwort ändern",
	"Files": "Dateien",
	"Loading": "Laden",
	"Old password": "Altes Passwort",
	"Invalid parameters": "Ungültige Parameter",
	"Set new password": "Legen Sie ein neues Passwort fest",
	"Confirm password entered": "Passwort bestätigen",
	"Please fill this field": "Bitte füllen Sie dieses Feld aus, um fortzufahren.",
	"Login": "Einloggen",
	"Log in": "Einloggen",
	"Log out": "Geh raus",
	"Reset password": "Passwort zurücksetzen",
	"Not yet registered?": "Noch kein Mitglied?",
	"Registration": "Registrierung",
	"Sign up": "Melden Sie sich an",
	"Already registered?": "Schon registriert?",
	"Confirm new password": "Neues Passwort bestätigen",
	"Password": "Passwort",
	"Confirm password": "Bestätigen Sie das Passwort",
	"Forgot password?": "Passwort vergessen?",
	"What is this": "Was ist das",
	"Pending": "In Erwartung",
	"Approve": "Zu genehmigen",
	"Approved": "Genehmigt",
	"Reject": "Ablehnen",
	"Rejected": "Abgelehnt",
	"Action": "Aktion",
	"Actions": "Aktionen",
	"Add": "Hinzufügen",
	"Create new one": "Erstellen",
	"Create": "Erstellen",
	"Open": "Öffnen",
	"Yes": "Ja",
	"No": "Nein",
	"Select": "Auswählen",
	"Send": "Senden",
	"User": "Benutzer",
	"Role": "Rolle",
	"Ban": "Verriegeln",
	"Banned": "Blockiert",
	"Site": "Site",
	"Logo": "Logo",
	"Company name": "Name des Unternehmens",
	"Phone": "Telefon",
	"Your name": "Ihr Name",
	"Full name": "Vollständiger Name",
	"First name": "Vorname",
	"Last name": "Nachname",
	"Social account": "Sozialkonto",
	"In social networks": "In sozialen Netzwerken",
	"Vkontakte": "Vkontakte",
	"Facebook": "Facebook",
	"Share": "Teile dies",
	"Status": "Status",
	"Type": "Typ",
	"Designer": "Der Designer",
	"Contact": "Kontakt",
	"Comment": "Kommentar",
	"Game Module Comment": "Detaillierte Beschreibung (für Spieler in den Spielregeln angezeigt)",
	"Module": "Modul",
	"List of games": "Liste der Spiele",
	"List of tournaments": "Turnierliste",
	"Past games": "Vergangene Spiele",
	"Coming games": "Kommende Spiele",
	"Admin panel": "Admin Panel",
	"Incorrect code for email confirmation": "Ungültiger E-Mail-Bestätigungscode",
	"admin": {
		"agreement": {
			"title": "Vereinbarung",
			"description": "Hier können Sie die Vereinbarung für verschiedene Sprachen bearbeiten.",
			"selectLang": "Vertragssprache auswählen:",
			"addButton": "Neues Element hinzufügen",
			"modalTitle": "Edit-Klausel",
			"saveButton": "Speichern",
			"cancelButton": "Abbrechen"
		}
	},
	"Map": "Karte",
	"List": "Liste",
	"Show all details": "Zeige alle Details",
	"Events": "Ereignisse",
	"Teams": "Mannschaften",
	"Team": "Das team",
	"Category": "Kategorie",
	"Time": "Zeit",
	"Photo": "Foto",
	"Mailing": "Newsletter",
	"Points": "Punkte",
	"Point": "Ergebnis",
	"GamePoints": "Punkte",
	"GamePoint": "Ergebnis",
	"GamePoint(s)": "Punkt (e)",
	"GamePoints for unit": "Punkte pro Einheit",
	"Activities": "Aktivitäten",
	"Participant": "Party",
	"Search participant": "Mitgliedersuche",
	"Participants": "Mitglieder",
	"Organizer": "Veranstalter",
	"Volunteer": "Freiwillige",
	"Become a volunteer": "Werde ein Freiwilliger",
	"Want to be a volunteer": "Er möchte ein Freiwilliger sein",
	"Show players that want to be volunteers": "Zeige Spieler, die sich freiwillig melden wollen",
	"Moderator": "Veranstalter",
	"Administrator": "Admin",
	"Admin": "Admin",
	"Player": "Spieler",
	"Start tournament": "Turnier starten",
	"Finish tournament": "Beende das Turnier",
	"Cancel tournament": "Turnier abbrechen",
	"Start game": "Starte das Spiel",
	"Finish game": "Beende das Spiel",
	"Cancel game": "Spiel abbrechen",
	"Join game": "Mitmachen",
	"Leave game": "Mach nicht mit",
	"Count results": "Ergebnisse zählen",
	"Total trash weight": "Gesamtgewicht des Mülls",
	"Number of bags of garbage": "Müllsäcke",
	"Teams that made check-ins, %": "% Der Teams, die Chekins hergestellt haben",
	"Teams that made check-ins": "Die Anzahl der Teams mit chekins",
	"Number of check-ins": "Insgesamt Chekins",
	"Number of countries": "Länder",
	"Number of cities": "Siedlungen",
	"Number of games": "Spiele",
	"Number of teams": "Mannschaften",
	"Number of players": "Anzahl der Spieler",
	"Number of volunteers": "Anzahl der Freiwilligen",
	"Number of organizers": "Anzahl der Organisatoren",
	"Number of participants": "Anzahl der Teilnehmer",
	"Total number of participants": "Teilnehmer insgesamt",
	"Status of participation": "Teilnahmestatus",
	"Status of the game": "Spielstatus",
	"You are a participant": "Du machst mit",
	"You are not a participant": "Sie nehmen nicht teil",
	"Reset game status": "Spielstatus zurücksetzen",
	"Create check-in": "Checkin erstellen",
	"All events": "Alle Ereignisse",
	"All participants": "Alle Teilnehmer",
	"All teams": "Alle Mannschaften",
	"Quest": "Quest",
	"Extra": "Optional",
	"Rating": "Bewertung",
	"Before cleaning": "Vor dem Reinigen",
	"After cleaning": "Nach der Reinigung",
	"Your team": "Dein Team",
	"Name of the team": "Team Name",
	"Information": "Informationen",
	"Send invitation": "Benutzer hinzufügen",
	"Join team": "Tritt dem Team bei",
	"Leave team": "Team verlassen",
	"Create team": "Team erstellen",
	"Edit organizers": "Organizer-Setup",
	"Manage tournament": "Turnierverwaltung",
	"Manage game": "Spielverwaltung",
	"Tournament settings": "Turnier Einstellungen",
	"Game settings": "Spieleinstellungen",
	"Game stats": "Spielstatistik",
	"Tournament stats": "Turnierstatistik",
	"Preliminary results": "Vorläufige Ergebnisse",
	"Requirements": "Anforderungen",
	"Choose": "Auswählen",
	"Select country": "Wähle ein Land",
	"Select region": "Wählen Sie eine Region",
	"Select city": "Wähle eine Stadt",
	"Bag": "Tasche",
	"Bags": "Säcke",
	"Weight": "Gewicht",
	"Garbage": "Müll",
	"Store and purchase": "Lager und Kauf",
	"Basecamp": "Hauptsitz des Spiels",
	"Summary": "Total",
	"Units": {
		"title": "Maßeinheit",
		"Meter": "Zähler",
		"Gram": "Gramm",
		"Kilogram": "Kilogramm",
		"Kilograms": "Kilogramm",
		"Ton": "Tonnen",
		"Tons": "Tonne (n)",
		"Peace": "Stück",
		"Peaces": "Stücke",
		"Bag": "Tasche",
		"Bags": "Taschen",
		"Point": "Punkt (e)",
		"Points": "Punkte"
	},
	"Game map": {
		"Create new point": "Hinzufügen eines Punkts zu einer Karte",
		"Edit point": "Punktbearbeitung",
		"Type of the point": "Punkttyp",
		"Choose type": "Typ auswählen",
		"Choose radius": "Wählen Sie den Radius",
		"Radius of the point": "Punktradius"
	},
	"Notification": {
		"Role requested": {
			"title": "Rollenänderungsanforderung",
			"text": "Der Benutzer hat eine Rollenänderungsanforderung gesendet"
		},
		"Role approved": {
			"title": "Antrag genehmigt",
			"text": "Ihre Anfrage für die Rolle des Organisators wurde genehmigt"
		},
		"Role rejected": {
			"title": "Antrag abgelehnt",
			"text": "Ihre Anfrage für die Rolle des Organisators wurde abgelehnt"
		},
		"Game created": {
			"title": "Neues Spiel",
			"text": "Das Spiel \"{{gameName}} \" wartet auf Mäßigung"
		},
		"Game approved": {
			"title": "Das Spiel wurde moderiert",
			"text": "Ihr Spiel \"{{gameName}} \" wurde moderiert"
		},
		"Game rejected": {
			"title": "Das Spiel konnte nicht moderiert werden",
			"text": "Dein Spiel \"{{gameName}}\" konnte nicht moderiert werden"
		}
	},
	"Team groups": {
		"Common": "Allgemeine",
		"General": "Allgemeine",
		"Children": "Kinder"
	},
	"Game team": {
		"Came": "Gekommen",
		"Number": "Teamnummer",
		"Members": "Mitglieder",
		"Manage team members": "Team-Management",
		"Reset numeration": "Nummerierung zurücksetzen",
		"Is it you?": "Das sind Sie?",
		"Invite player": "Lade einen Spieler ein",
		"Add player": "Spieler hinzufügen",
		"Invite unregistered user": "Laden Sie nicht registrierte Benutzer ein",
		"Add unregistered player": "Füge einen nicht registrierten Spieler hinzu",
		"Type name of the team": "Geben Sie den Teamnamen ein",
		"Type category of team": "Teamkategorie auswählen",
		"Choose team": "Wähle ein Team"
	},
	"Game status": {
		"UNAPPROVED": "Warten auf Überprüfung durch den Moderator",
		"APPROVED": "Bestandener Scheck",
		"REGISTRATION_OPENED": "Die Registrierung ist offen",
		"REGISTRATION_CLOSED": "Registrierung abgeschlossen",
		"PURCHASE_OPENED": "Kauf verfügbar",
		"PURCHASE_CLOSED": "Kaufen Sie geschlossen",
		"STARTED": "Das Spiel ist eröffnet",
		"TESTING": "Spiel wird getestet",
		"COUNTING_RESULTS": "Ergebnisse zählen",
		"CANCELED": "Spiel abgebrochen",
		"FINISHED": "Spiel vorbei"
	},
	"Game rules": {
		"The bag must be filled": "Wichtig! Der Beutel sollte zu 2/3 gefüllt sein (wenn der Beutel mit Glas gefüllt ist, dann zu 1/2). Für einen Beutel, der mit weniger als dem angegebenen Volumen gefüllt ist, wird eine geringere Anzahl von Punkten vergeben (es sei denn, der Beutel ist schwer).",
		"Collect the trash and give it to the warehouse to the buyer": "Sammle Müll und bringe ihn zum Lager für Käufer",
		"Separate trash and get more": "Müll trennen und mehr bekommen",
		"Perform additional activities": "Führen Sie zusätzliche Aktivitäten durch",
		"Guess riddles": "Rätsel",
		"At the start of the game, each team gets two riddles.": "Wenn Sie ein Rätsel erraten, erhalten Sie mehr Punkte in der Bewertung Ihres Teams.",
		"Buy inventory": "Inventar kaufen",
		"Inventory description": "Um Müll schneller und effizienter zu sammeln, können Sie Ausrüstung für verdiente Punkte kaufen.",
		"Make checks during the game": "Machen Sie während des Spiels Kontrollen",
		"Checkins description": "Chekins - Markierungen mit Fotos am Ort der Reinigung. Durch die Durchführung von Überprüfungen beteiligen Sie sich an der Erstellung einer interaktiven Karte von Müllsammelstellen, die zur weiteren Aufrechterhaltung der Sauberkeit dieses Ortes beitragen kann.",
		"Participate in contests": "Nimm an Wettbewerben teil",
		"Do photo hunting": "Machen Sie eine Fotojagd",
		"Default security rules": "<p>1. Überprüfen Sie vor Spielbeginn, ob geeignete Kleidung, Schuhe und persönliche Schutzausrüstung (Handschuhe) vorhanden sind.\n<p>2. Informieren Sie bei Verwendung des Inventars die Organisatoren unverzüglich über alle Inventarstörungen.\n<p> 3. Schauen Sie beim Sammeln von Müll unter Ihre Füße und verfolgen Sie, wohin Sie laufen.\n<p> 4. Die Reinigung wird nur in dem Gebiet durchgeführt, das auf der Karte angegeben ist, die Sie bei der Registrierung erhalten haben, oder vor Ort eingeschränkt. Gehen Sie nicht weit über dieses Gebiet hinaus - es ist unsicher.\n<p> 5. Personenbezogene Vorsichtsmaßnahmen beachten. Wenn sich gefährliche Abschnitte auf der Fahrtroute befinden (oder aufgetaucht sind), wählen Sie eine Problemumgehung aus. Benachrichtigen Sie die Organisatoren über alle Gefahrenbereiche.\n<p> 6. Seien Sie vorsichtig beim Sammeln von Müll aus Schluchten, Luken und Brunnen. Sie können gefährlich sein.\n<p> 7. Gehen Sie beim Sammeln von Müll besonders vorsichtig mit Glas um - es kommt oft in Form von Bruchstücken vor und kann Sie verletzen. Stellen Sie sicher, dass keine Glasmüllsäcke gegen Ihre Füße reiben.\n<p> 8. Befolgen Sie während des Spiels die Straßenregeln, wenn Sie sich in unmittelbarer Nähe der Fahrbahn befinden.\n<p> 9. Beachten Sie in unmittelbarer Nähe von Gewässern die Regeln für den Aufenthalt in Gewässern: Nicht ins Wasser gehen, Sicherheitsabstand einhalten.\n<p> 10. Wenn Sie verletzt werden, wenden Sie sich sofort an das Hauptquartier. Dort erhalten Sie erste Hilfe.\n<p> 11. Wenn Sie in dem Gebiet etwas finden, das Ihnen gefährlich erscheint, berühren Sie es nicht, werfen Sie es nicht in eine Tasche und informieren Sie unverzüglich die Organisatoren.\n<p> 12. Während des Spiels müssen alle 20 Minuten Kleidung, Körper und Kopf überprüft werden. Es können auch Aerosol-Repellentien verwendet werden, die neben Zecken auch fliegende blutsaugende Insekten abwehren. Hinweise zur Verwendung von Repellentien sind auf der Verpackung ausführlich beschrieben. Am Ende des Spiels wird empfohlen, eine detaillierte Untersuchung des gesamten Körpers und der Kleidung durchzuführen."
	},
	"Game tasks": {
		"Task": "Задача",
		"Date": "Дата",
		"Manager": "Ответственный",
		"Result": "Результат",
		"Confirm": "Подтвердить",
		"Add task": "Добавить задачу",
		"Remove task": "Удалить задачу"
	},
	"Game formats": {
		"Small": "Малый",
		"Medium": "Средний",
		"Big": "Большой",
		"Max": "Максимальный",
		"Copyrights": "Символика ЧИ",
		"Mobile app": "Моб. приложение",
		"Website": "Сайт",
		"Bio toilets": "Биотуалеты",
		"Scene": "Сцена",
		"Photohunt": "Фотоохота"
	},
	"Create tournament": {
		"errors": {
			"This tag belongs to another tournament": "Введенный тег уже используется для другого турнира"
		},
		"input": {
			"Name": "Название турнира",
			"Tag": "Тег турнира",
			"Poster": "Афиша",
			"Date": "Дата проведения",
			"Time": "Время проведения",
			"Rules": "Техника безопасности",
			"Description": "Описание турнира",
			"Game rules": "Правила игры и техника безопасности"
		},
		"status": {
			"UNAPPROVED": "Ожидает проверки",
			"APPROVED": "Прошел проверку",
			"REGISTRATION_OPENED": "Регистрация открыта",
			"REGISTRATION_CLOSED": "Регистрация закрыта",
			"STARTED": "Начат",
			"TESTING": "Тестирование",
			"COUNTING_RESULTS": "Подсчет результатов",
			"FINISHED": "Завершена"
		},
		"title": "Создание турнира",
		"description": "Lorem ipsum dolor sit amet, consectetur adipisicing elit, sed do eiusmod tempor incididunt ut labore et dolore magna aliqua. Ut enim ad minim veniam, quis nostrud exercitation ullamco laboris nisi ut aliquip ex ea commodo consequat.",
		"Button": "Создать турнир",
		"Tournament passport": {
			"title": "Паспорт турнира",
			"description": "Lorem ipsum dolor sit amet, consectetur adipisicing elit."
		},
		"Fill information about the tournament": "Заполните информацию о турнире",
		"Main settings": {
			"title": "Основная информация",
			"subtitle": "Текст заголовка и описание"
		},
		"Additional settings": {
			"title": "Erweiterte Einstellungen"
		},
		"Admin settings": {
			"title": "Admin-Einstellungen"
		},
		"footer": "Lorem ipsum dolor sit amet, consectetur adipisicing elit, sed do eiusmod\ntempor incididunt ut labore et dolore magna aliqua. Ut enim ad minim veniam,\nquis nostrud exercitation ullamco laboris nisi ut aliquip ex ea commodo\nconsequat. Duis aute irure dolor in reprehenderit in voluptate velit esse\ncillum dolore eu fugiat nulla pariatur. Excepteur sint occaecat cupidatat non\nproident, sunt in culpa qui officia deserunt mollit anim id est laborum."
	},
	"Create game": {
		"errors": {
			"You must specify either regionId or region": "Wählen Sie eine Region aus der Liste aus oder geben Sie sie manuell ein",
			"You must specify either cityId or city": "Wählen Sie eine Stadt aus der Liste oder geben Sie sie manuell ein",
			"This tag belongs to another game": "Die eingegebene Adresse wird bereits für ein anderes Spiel verwendet"
		},
		"input": {
			"Name": "Spielname",
			"Tag": "Die Spieladresse auf der Website",
			"Poster": "Spielzettel",
			"Date": "Datum",
			"Time": "Zeit",
			"Country": "Land",
			"Region": "Region",
			"City": "Die Stadt",
			"Main organizer": "Hauptveranstalter",
			"Contact person": "Kontaktperson",
			"Staff coordinates": "Hauptsitz koordiniert",
			"Rules": "Sicherheitstechnik",
			"Description": "Spielbeschreibung",
			"VK group": "VK Gruppenadresse",
			"FB group": "FB-Gruppenadresse",
			"Game rules": "Spielregeln und Sicherheit",
			"Tooltip for the name of the game": "In Übereinstimmung mit Abschnitt 2.3.4 der Vereinbarung über die Verwendung der Clean Games-Methode",
			"Tooltip for the tag": "Hier kannst du angeben, welche Endadresse dein Spiel auf der Site haben soll",
			"Tooltip for the main organizer": "Hat Zugriff auf alle Spielverwaltungsfunktionen und den Spielpass",
			"Max teammates": "Maximale Teamgröße",
			"Show in public list": "In allgemeiner Liste anzeigen",
			"New city": "Neustadt / Stadt",
			"Corporate game": "Gesellschaftsspiel",
			"Customer": "Kunde"
		},
		"status": {
			"UNAPPROVED": "Überprüfung ausstehend",
			"APPROVED": "Bestandener Scheck",
			"REGISTRATION_OPENED": "Die Registrierung ist offen",
			"REGISTRATION_CLOSED": "Registrierung geschlossen",
			"STARTED": "Hat angefangen",
			"TESTING": "Testen",
			"COUNTING_RESULTS": "Ergebnisse zählen",
			"FINISHED": "Abgeschlossen"
		},
		"title": "Game-Erstellung",
		"description": "Lorem ipsum dolor sit amet, consectetur adipisicing elit, sed do eiusmod tempor incididunt ut labore et dolore magna aliqua. Ut enim ad minim veniam, quis nostrud exercitation ullamco laboris nisi ut aliquip ex ea commodo consequat.",
		"Choose game type": "Выберите тип игры",
		"Formats": "Форматы",
		"Choose kind": {
			"title": "Выберите вид",
			"description": "Lorem ipsum dolor sit amet, consectetur adipisicing elit, sed do eiusmod\ntempor incididunt ut labore et dolore magna aliqua. Ut enim ad minim veniam,\nquis nostrud exercitation ullamco laboris nisi ut aliquip ex ea commodo\nconsequat. Duis aute irure dolor in reprehenderit in voluptate velit esse\ncillum dolore eu fugiat nulla pariatur. Excepteur sint occaecat cupidatat non\nproident, sunt in culpa qui officia deserunt mollit anim id est laborum."
		},
		"Choose format": {
			"title": "Выберите формат игры",
			"description": "Lorem ipsum dolor sit amet, consectetur adipisicing elit"
		},
		"Create without format": {
			"title": "Создать без формата",
			"description": "Ut enim ad minim veniam, quis nostrud exercitation ullamco laboris nisi ut aliquip ex ea commodo consequat"
		},
		"Button": "Spiel erstellen",
		"Quest": "Quest",
		"Game passport": {
			"title": "Spielpass",
			"description": "Lorem ipsum dolor sit amet, consectetur adipisicing elit."
		},
		"Fill information about the game": "Füllen Sie die Spielinformationen aus",
		"Main settings": {
			"title": "Основная информация",
			"subtitle": "Текст заголовка и описание"
		},
		"Additional settings": {
			"title": "Erweiterte Einstellungen"
		},
		"Admin settings": {
			"title": "Admin-Einstellungen"
		},
		"footer": "Lorem ipsum dolor sit amet, consectetur adipisicing elit, sed do eiusmod\ntempor incididunt ut labore et dolore magna aliqua. Ut enim ad minim veniam,\nquis nostrud exercitation ullamco laboris nisi ut aliquip ex ea commodo\nconsequat. Duis aute irure dolor in reprehenderit in voluptate velit esse\ncillum dolore eu fugiat nulla pariatur. Excepteur sint occaecat cupidatat non\nproident, sunt in culpa qui officia deserunt mollit anim id est laborum."
	},
	"License agreement": {
		"title": "Vereinbarung über die Verwendung\nder Clean Games-Methoden",
		"description": "Bitte lesen und akzeptieren Sie diese Vereinbarung sorgfältig, um Veranstalter zu werden.",
		"subtitle": "Der Veranstalter verpflichtet sich, die folgenden Bedingungen einzuhalten",
		"text": "Um der Organisator des Clean Game zu werden, müssen Sie allen Punkten zustimmen und einen Non-Profit-Vertrag unterzeichnen. Sie können die Vertragsvorlage über den folgenden Link herunterladen.",
		"Button description": "Sie können die unterzeichnete Vereinbarung herunterladen, indem Sie auf die Schaltfläche unten klicken.",
		"Button": "Veranstalter werden",
		"Request has been successfully sent": "Sie haben erfolgreich eine Anfrage eingereicht. Bitte warten Sie, bis es vom Site-Moderator verarbeitet wurde.",
		"Request already sent": "Sie haben bereits eine Anfrage eingereicht. Bitte warten Sie, bis es vom Site-Moderator verarbeitet wurde."
	},
	"Organizers": {
		"title": "Организаторы",
		"Add organizer": "Добавить организатора",
		"Remove organizer": "Удалить организатора",
		"PR manager": "Ответственный за PR / SMM",
		"Volunteers manager": "Координатор волонтеров",
		"Main organizer": "Главный организатор",
		"Organizer assistant": "Помощник главного организатора"
	},
	"Game passport": {
		"title": "Паспорт игры",
		"subtitle": "Заполните все поля во вкладках",
		"Task": "Задача",
		"Manager": "Ответственный",
		"Result": "Результат",
		"Confirm": "Подтвердить",
		"Add task": "Добавить задачу"
	},
	"About": {
		"title": "О мероприятии",
		"Common": "Общие",
		"Vkontakte": "Вконтакте",
		"Facebook": "Facebook",
		"Posts": "Публикации о мероприятии",
		"Photos": "Фото с игры",
		"Videos": "Видео с игры",
		"Letters": "Благодарственные письма",
		"Documents": "Отчетные документы по игре",
		"Date": "Дата проведения",
		"Time": "Время проведения",
		"Poster": "Афиша",
		"VK group": "Группа ВК"
	},
	"Game modules": {
		"title": "Spielmodule",
		"Garbage purchase": "Müllabfuhr",
		"Artifact purchase": "Artefakt-Kauf",
		"Artifacts": "Andere Aktivitäten",
		"Artifact": "Artefakt",
		"Inventory sales": "Lagerverkauf",
		"Inventory": "Inventar",
		"Purchase": "Aufkaufen",
		"Correction": "Korrektur",
		"correction placeholder": "Korrektur",
		"Checkins": "Chekins",
		"Checkin": "Chekin",
		"Photos": "Fotografiejagd",
		"Photohunt": "Fotografiejagd",
		"Riddles": "Rätsel",
		"Riddle": "Rätsel",
		"Mixed garbage": "Gemischter Müll",
		"Plastic": "Kunststoff",
		"Metal": "Metall",
		"Glass": "Glas",
		"Batteries": "Batterien",
		"Cans": "Aluminiumdosen",
		"Tires": "Reifen",
		"Big garbage": "Großer Müll",
		"Max points for one artifact": "Maximale Artefaktpunktzahl",
		"Max points for one riddle": "Die maximale Punktzahl für das Rätsel",
		"Truck": "Wagen",
		"Rake": "Rechen",
		"Shovel": "Schaufel",
		"Stretcher": "Bahre",
		"Net": "Schmetterlingsnetz",
		"Add check-ins to the game": "Check-in zum Spiel hinzufügen",
		"Check-in price": "Kosten prüfen",
		"Photohunt price": "Jagdkosten",
		"Photohunt repost price": "Die Kosten für die Neuveröffentlichung der Fotojagd in einem sozialen Netzwerk",
		"Check-in repost price": "Die Kosten für das Umbuchen eines Schecks in einem sozialen Netzwerk",
		"Add photos to the game": "Fügen Sie dem Spiel eine Fotojagd hinzu",
		"Add riddles to the game": "Füge dem Spiel Rätsel hinzu",
		"Default Comment": {
			"Mixed garbage": "Nicht akzeptiert: mineralische Abfälle (Keramik, Zement, Betonabfälle, Ziegel, Asphalt); Protokolle, Bretter und andere Holzabfälle.",
			"Plastic": "Es werden nur zerknitterte PET-Plastikflaschen akzeptiert. Andere Kunststoffe werden im Restmüll entsorgt.",
			"Metal": "Nicht rostig (oder mit etwas Rost).",
			"Glass": "Ohne Land, Wasser, Zigarettenstummel, Bioprodukte. Unangemessenes Glas wird in gemischte Müllsäcke gegeben.",
			"Batteries": "Nur auf der Spieleseite zu finden. Nicht mehr als 20 Teile pro Team und Spiel.",
			"Cans": "Getrennt vom Rest des Metalls gesammelt.",
			"Tires": "Nicht akzeptiert: mineralische Abfälle (Keramik, Zement, Betonabfälle, Ziegel, Asphalt); Protokolle, Bretter und andere Holzabfälle.",
			"Big garbage": "Ohne fremden Müll und Wasser.",
			"Max points for one artifact": "",
			"Max points for one riddle": "Die maximale Punktzahl für das Rätsel",
			"Truck": "Für die schnelle Anlieferung von schwerem Müll. Der Preis gilt für 1 Stck.",
			"Rake": "Zum Harken von kleinen Fremdkörpern. Der Preis gilt für 1 Stck.",
			"Shovel": "Für große Müllhalden. Der Preis gilt für 1 Stck.",
			"Stretcher": "Zum Tragen von schwerem Müll. Der Preis gilt für 1 Stck.",
			"Net": "Zum Auffangen von Müll aus dem Wasser. Der Preis gilt für 1 Stck."
		}
	},
	"Tech modules": {
		"title": "Технические модули",
		"Rain cover": "Укрытие от дождя",
		"Power supply": "Электроснабжение",
		"Toilet": "Туалет",
		"Not-provided": "Не предусмотрено",
		"Bio-toilet": "Био туалет",
		"Camp-toilet": "Походный туалет",
		"Generator": "Генератор",
		"Raincoat": "Дождевик",
		"Tent": "Шатер",
		"Tent-star": "Шатер-звезда"
	},
	"AHCH": {
		"title": "АХЧ"
	},
	"Specialists": {
		"title": "Специалисты",
		"Add specialist": "Добавить специалиста",
		"Remove specialist": "Удалить специалиста"
	},
	"Sponsors": {
		"title": "Спонсоры",
		"Add sponsor": "Добавить спонсора",
		"Remove sponsor": "Удалить спонсора"
	},
	"Place": {
		"title": "Место"
	},
	"Volunteers": {
		"title": "Волонтеры",
		"Coordinator tasks": "Задачи координатора",
		"List of volunteers": "Список волонтеров",
		"Add volunteer": "Добавить волонтера",
		"Remove volunteer": "Удалить волонтера"
	},
	"Polygraphy": {
		"title": "Полиграфия",
		"Recommended polygraphy": "Рекомендуемая полиграфия",
		"Official polygraphy": "Опциональная полиграфия",
		"Layout link": "Ссылка на макет",
		"Format": "Формат",
		"Paper type": "Тип бумаги",
		"Edition": "Тираж"
	},
	"Scenario": {
		"title": "Сценарий"
	},
	"Post-production": {
		"title": "Пост-продакшн"
	},
	"Reward": {
		"title": "Награждение"
	},
	"Guests": {
		"title": "Гости",
		"Position": "Должность",
		"Invited": "Приглашен",
		"Came": "Пришел",
		"Not_came": "Не пришел",
		"Set status": "Укажите статус"
	},
	"Other": {
		"title": "Прочее"
	},
	"General sponsor": "Генеральный спонсор",
	"Sponsor": "Спонсор",
	"Info partner": "Информационный партнер",
	"Partner": "Партнер",
	"Error": "Ошибка",
	"Errors": {
		"Access denied": "Zugriff verweigert",
		"Action has been blocked": "Die Operation wurde gesperrt. Wenden Sie sich an den technischen Support.",
		"Invalid email or password": "Ungültiges Passwort und / oder ungültige E-Mail-Adresse",
		"Please set password": "Passwort ist erforderlich.",
		"The request failed, please try again later or contact technical support": "Die Anfrage ist fehlgeschlagen. Bitte versuchen Sie es später erneut oder wenden Sie sich an den technischen Support.",
		"First name is too short": "Der eingegebene Name ist zu kurz",
		"You should upload two photos to make check-in": "Sie müssen beide Fotos hochladen, um einchecken zu können.",
		"You should upload a photo to make photohunt": "Sie können keine Fotosuche erstellen, ohne ein Foto hochzuladen",
		"You must select at least one item with non-zero quantity": "Sie müssen mindestens einen Artikel mit einer Menge ungleich Null auswählen.",
		"Module can't be removed if it has at least one purchase": "Ein Modul kann nicht entfernt werden, wenn es in mindestens einem Kauf verwendet wird",
		"Not enough game points": "Nicht genug Spielpunkte",
		"This activity is not allowed at this game": "Diese Aktion ist im aktuellen Spiel nicht verfügbar.",
		"Please set geo location": "Bitte geben Sie Koordinaten / Ort an. Wenn der Ort derzeit nicht bekannt ist, geben Sie ungefähr an",
		"This name belongs to another team": "Der eingegebene Name gehört einem anderen Team.",
		"This number belongs to another team": "Die eingegebene Nummer gehört einem anderen Team",
		"You are not allowed to set some of specified game settings": "Sie haben keinen Zugriff, um einige der angegebenen Spieleinstellungen festzulegen",
		"That team has associated game events, remove them first to continue": "Mit diesem Team sind Spielereignisse verbunden. Löschen Sie diese zuerst, um fortzufahren."
	}
}