{
  "thisLanguage": "EN",
  "Access is denied": "Access is denied",
  "All rights reserved": "All rights reserved",
  "Download mobile app": "Download mobile app",
  "Attach file": "Attach file",
  "Click on this area or drag file(s) to it": "Click on this area or drag file(s) to it",
  "Upload selected file(s)": "Upload selected file(s)",
  "Clean Games": "Clean Games",
  "Go back to the previous page": "Go back to the previous page",
  "Go back to the main page": "Go back to the main page",
  "Go back to the game page": "Go to the game page",
  "Go back to the tournament page": "Go back to the tournament page",
  "Play": "Play",
  "Create Game": "Create Game",
  "Create purchase": "Create purchase",
  "Game editing": "Game editing",
  "Tournament editing": "Tournament editing",
  "World": "World",
  "Country": {
    "RU": "Russia",
    "UA": "Ukraine"
  },
  "About us": "About us",
  "The site was developed with the financial support of": "The site was developed with the financial support of",
  "President Grants Foundation": "President Grants Foundation",
  "Championship": "Championship",
  "Organize": "Organize",
  "Organization": "Organization",
  "Tournaments": "Tournaments",
  "Help": "Help",
  "Settings": "Settings",
  "Search": "Search",
  "Search team": "Search team",
  "Search by team": "Search by team",
  "Search by name": "Search by name",
  "Search by city": "Search by city",
  "Search by region": "Search by region",
  "Type name of the city": "Type name of the city",
  "Type name of the game you want to find": "Type name of the game you want to find",
  "For business": "For business",
  "For governments": "For governments",
  "Contacts": "Contacts",
  "Instructions": "Instructions",
  "Remove": "Remove",
  "Remove file": "Remove file",
  "Edit": "Edit",
  "Save": "Save",
  "Link": "Link",
  "My region": "My region",
  "Games, organizers and partners in your region": "Games, organizers and partners in your region",
  "Main page": "Main page",
  "Main info": "Main info",
  "Tabs": "Tabs",
  "or use social network account": "or use social network account",
  "Profile": "Profile",
  "Repeat password": "Repeat password",
  "New password": "New password",
  "Repeat new password": "Repeat new password",
  "Type new password": "Type new password",
  "Type your current password": "Type your current password",
  "Free space for notes": "Free space for notes",
  "Change password": "Change password",
  "Files": "Files",
  "Loading": "Loading",
  "Old password": "Old password",
  "Invalid parameters": "Invalid parameters",
  "Set new password": "Set new password",
  "Confirm password entered": "Confirm password entered",
  "Please fill this field": "Please fill this field",
  "Login": "Login",
  "Log in": "Log in",
  "Log out": "Log out",
  "Reset password": "Reset password",
  "Not yet registered?": "Not yet registered?",
  "Registration": "Registration",
  "Sign up": "Sign up",
  "Already registered?": "Already registered?",
  "Confirm new password": "Confirm new password",
  "Password": "Password",
  "Confirm password": "Confirm password",
  "Forgot password?": "Forgot password?",
  "What is this": "What is this?",
  "Action": "Action",
  "Actions": "Actions",
  "Pending": "Pending",
  "Approve": "Approve",
  "Approved": "Approved",
  "Reject": "Reject",
  "Rejected": "Rejected",
  "Add": "Add",
  "Create new one": "Create new one",
  "Create": "Create",
  "Open": "Open",
  "Yes": "Yes",
  "No": "No",
  "Select": "Select",
  "Send": "Send",
  "User": "User",
  "Role": "Role",
  "Ban": "Ban",
  "Banned": "Banned",
  "Site": "Site",
  "Logo": "Logo",
  "Company name": "Company name",
  "Phone": "Phone",
  "Your name": "Your name",
  "Full name": "Full name",
  "First name": "First name",
  "Last name": "Last name",
  "Social account": "Social account",
  "In social networks": "In social networks",
  "Vkontakte": "Vkontakte",
  "Facebook": "Facebook",
  "Share": "Share",
  "Status": "Status",
  "Type": "Type",
  "Designer": "Designer",
  "Contact": "Contact",
  "Comment": "Comment",
  "Game Module Comment": "Description (shown for users in Game Rules)",
  "Module": "Module",
  "Games": "Games",
  "List of games": "List of games",
  "List of tournaments": "List of tournaments",
  "List of corporate ratings": "List of corporate ratings",
  "Date of the last game": "Date of the last game",
  "Past games": "Past games",
  "Coming games": "Coming games",
  "Admin panel": "Admin panel",
  "Incorrect code for email confirmation": "Incorrect code for email confirmation",
  "Confirm your email address": "Confirm your email address",
  "Click on the link to confirm the registration request": "Click on the link to confirm the registration request: {{link}}",
  "Click on the link to confirm the registration request and set a password": "Click on the link to confirm the registration request and set a password: {{link}}",
  "admin": {
    "agreement": {
      "title": "Agreement",
      "description": "On this page you can edit Agreement for different languages.",
      "selectLang": "Select Agreement Language:",
      "addButton": "Add new item",
      "modalTitle": "Edit block",
      "saveButton": "Save",
      "cancelButton": "Cancel"
    }
  },
  "Map": "Map",
  "List": "List",
  "Show all details": "Show all details",
  "Events": "Events",
  "Teams": "Teams",
  "Team": "Team",
  "Category": "Category",
  "Time": "Time",
  "Photo": "Photo",
  "Mailing": "Mailing",
  "Points": "Game points",
  "Point": "Game points",
  "GamePoints": "Points",
  "GamePoint(s)": "Game point(s)",
  "GamePoint": "Game point",
  "GamePoints for unit": "Points for unit",
  "Activities": "Activities",
  "Participant": "Participant",
  "Search participant": "Search participant",
  "Participants": "Participants",
  "Organizer": "Organizer",
  "Volunteer": "Volunteer",
  "Become a volunteer": "Become a volunteer",
  "Want to be a volunteer": "Want to be a volunteer",
  "Show players that want to be volunteers": "Show players that want to be volunteers",
  "Moderator": "Organizer",
  "Administrator": "Administrator",
  "Admin": "Admin",
  "Player": "Player",
  "Start tournament": "Начать турнир",
  "Finish tournament": "Завершить турнир",
  "Cancel tournament": "Отменить турнир",
  "Start game": "Start game",
  "Finish game": "Finish game",
  "Cancel game": "Cancel game",
  "Join game": "Join game",
  "Leave game": "Leave game",
  "Count results": "Count results",
  "Total trash weight": "Total trash weight",
  "Number of bags of garbage": "Number of bags of garbage",
  "Teams that made check-ins, %": "Teams that made check-ins, %",
  "Teams that made check-ins": "Teams that made check-ins",
  "Number of check-ins": "Number of check-ins",
  "Number of countries": "Countries",
  "Number of cities": "Cities",
  "Number of games": "Games",
  "Number of teams": "Teams",
  "Number of players": "Number of players",
  "Number of volunteers": "Number of volunteers",
  "Number of organizers": "Number of organizers",
  "Number of participants": "Number of participants",
  "Total number of participants": "Total number of participants",
  "Status of participation": "Status of participation",
  "Status of the game": "Status of the game",
  "You are a participant": "You are a participant",
  "You are not a participant": "You are not a participant",
  "Reset game status": "Reset game status",
  "Create check-in": "Create check-in",
  "All events": "All events",
  "All participants": "All participants",
  "All teams": "All teams",
  "Quest": "Quest",
  "Extra": "Extra",
  "Rating": "Rating",
  "Before cleaning": "Before cleaning",
  "After cleaning": "After cleaning",
  "Your team": "Your team",
  "Name of the team": "Name of the team",
  "Name of the rating": "Name of the rating",
  "Information": "Information",
  "Send invitation": "Send invitation",
  "Join team": "Join team",
  "Leave team": "Leave team",
  "Create team": "Create team",
  "Edit organizers": "Edit organizers",
  "Manage tournament": "Manage tournament",
  "Manage game": "Manage game",
  "Tournament settings": "Tournament settings",
  "Game settings": "Game settings",
  "Game stats": "Game stats",
  "Autumn tournament": "Autumn tournament",
  "Failed autumn tournament": "Failed autumn tournament",
  "Spring tournament": "Spring tournament",
  "Winner": "Winner",
  "Helper": "Helper",
  "Tournament stats": "Tournament stats",
  "Preliminary results": "Preliminary results",
  "Requirements": "Requirements",
  "Choose": "Choose",
  "Select country": "Select country",
  "Select region": "Select region",
  "Select city": "Select city",
  "Bag": "Bag",
  "Bags": "Bags",
  "Weight": "Weight",
  "Weight per participant": "Weight per participant",
  "Garbage": "Garbage",
  "Store and purchase": "Store and purchase",
  "Basecamp": "Basecamp",
  "Summary": "Summary",
  "Units": {
    "title": "Unit",
    "Meter": "Метр(ов)",
    "Gram": "Грамм(ов)",
    "Kilogram": "Kilogram",
    "Kilograms": "Kilograms",
    "Ton": "Ton",
    "Tons": "Tons",
    "Peace": "Peace",
    "Peaces": "Peaces",
    "Bag": "Bag",
    "Bags": "Bags",
    "Point": "Point",
    "Points": "Points"
  },
  "Game map": {
    "Create new point": "Create new point",
    "Edit point": "Edit point",
    "Type of the point": "Type of the point",
    "Choose type": "Choose type",
    "Choose radius": "Choose radius",
    "Radius of the point": "Radius of the point"
  },
  "Notification": {
    "Role requested": {
      "title": "Role requested",
      "text": "User sent a request to change his role"
    },
    "Role approved": {
      "title": "Role approved",
      "text": "Your request to become an organizer has been approved"
    },
    "Role rejected": {
      "title": "Role rejected",
      "text": "Your request to become an organizer has been rejected"
    },
    "Game created": {
      "title": "Game has been created",
      "text": "New game \"{{gameName}}\" is waiting for approval"
    },
    "Game approved": {
      "title": "Game passed moderation",
      "text": "Your game \"{{gameName}}\" has passed moderation"
    },
    "Game rejected": {
      "title": "Game has been rejected",
      "text": "Your game \"{{gameName}}\" has not passed moderation"
    }
  },
  "Team groups": {
    "Common": "Common",
    "General": "General",
    "Children": "Children"
  },
  "Game team": {
    "Came": "Came",
    "Number": "Team number",
    "Members": "Members",
    "Manage team members": "Manage team members",
    "Reset numeration": "Reset numeration",
    "Is it you?": "Is it you?",
    "Invite player": "Invite player",
    "Add player": "Add player",
    "Invite unregistered user": "Invite unregistered user",
    "Add unregistered player": "Add unregistered player",
    "Type name of the team": "Type name of the team",
    "Type category of team": "Type category of team",
    "Choose team": "Choose team"
  },
  "Game status": {
    "UNAPPROVED": "Waiting for approval",
    "APPROVED": "Approved",
    "REGISTRATION_OPENED": "Registration opened",
    "REGISTRATION_CLOSED": "Registration closed",
    "PURCHASE_OPENED": "Purchase is available",
    "PURCHASE_CLOSED": "Purchase is unavailable",
    "STARTED": "Started",
    "TESTING": "Testing",
    "COUNTING_RESULTS": "Counting results",
    "CANCELED": "Canceled",
    "FINISHED": "Finished"
  },
  "Game rules": {
    "Collect the trash and give it to the warehouse to the buyer": "Collect the trash and give it to the warehouse to the buyer",
    "Separate trash and get more": "Separate trash and get more",
    "The bag must be filled": "Important! The bag must be filled to 2/3, if the bag with glass, then 1/2.",
    "Perform additional activities": "Perform additional activities",
    "Guess riddles": "Guess riddles",
    "At the start of the game, each team gets two riddles.": "At the start of the game, each team gets two riddles.",
    "Buy inventory": "Buy inventory",
    "Inventory description": "In order to collect garbage faster and more efficiently, you can buy an infartar for earned points.",
    "Make checks during the game": "Make checks during the game",
    "Checkins description": "Chekins - marks with photos at the place of cleaning. By making checks, you are participating in the creation of an interactive map of garbage accumulation sites, which can help in further maintaining the cleanliness of this place.",
    "Participate in contests": "Participate in contests",
    "Do photo hunting": "Do photo hunting",
    "Default security rules": "There is should be default security rules"
  },
  "Game tasks": {
    "Task": "Task",
    "Date": "Date",
    "Manager": "Manager",
    "Result": "Result",
    "Confirm": "Confirm",
    "Add task": "Add task",
    "Remove task": "Remove task"
  },
  "Game formats": {
    "Small": "Small",
    "Medium": "Medium",
    "Big": "Big",
    "Max": "Maximal",
    "Copyrights": "Copyrights",
    "Mobile app": "Mobile app",
    "Website": "Website",
    "Bio toilets": "Bio toilets",
    "Scene": "Scene",
    "Photohunt": "Photohunt"
  },
  "Create tournament": {
    "errors": {
      "This tag belongs to another tournament": "This tag belongs to another tournament"
    },
    "input": {
      "Name": "Name of the tournament",
      "Tag": "Link the tournament",
      "Poster": "Poster",
      "Date": "Date",
      "Time": "Time",
      "Rules": "Safety rules",
      "Description": "Description",
      "Game rules": "Tournament rules and safety arrangements"
    },
    "status": {
      "UNAPPROVED": "Waiting for approval",
      "APPROVED": "Approved",
      "REGISTRATION_OPENED": "Registration opened",
      "REGISTRATION_CLOSED": "Registration closed",
      "STARTED": "Started",
      "TESTING": "Testing",
      "COUNTING_RESULTS": "Counting results",
      "FINISHED": "Finished"
    },
    "title": "Tournament creation",
    "description": "A tournament is a team competition between several games. The tournament combines different games with a single rating system and, as a rule, with uniform rules.",
    "Button": "Create tournament",
    "Tournament passport": {
      "title": "Tournament passport",
      "description": "Lorem ipsum dolor sit amet, consectetur adipisicing elit."
    },
    "Fill information about the tournament": "Fill information about the tournament",
    "Main settings": {
      "title": "Main information",
      "subtitle": "Fill in the name and description of the tournament, determine the date or period of the tournament, and add a poster. Also enter the address where you can find the tournament page."
    },
    "Additional settings": {
      "title": "Additional settings"
    },
    "Admin settings": {
      "title": "Admin settings"
    },
    "footer": "Lorem ipsum dolor sit amet, consectetur adipisicing elit, sed do eiusmod\ntempor incididunt ut labore et dolore magna aliqua. Ut enim ad minim veniam,\nquis nostrud exercitation ullamco laboris nisi ut aliquip ex ea commodo\nconsequat. Duis aute irure dolor in reprehenderit in voluptate velit esse\ncillum dolore eu fugiat nulla pariatur. Excepteur sint occaecat cupidatat non\nproident, sunt in culpa qui officia deserunt mollit anim id est laborum."
  },
  "Create game": {
    "errors": {
      "You must specify either regionId or region": "You must specify either regionId or region",
      "You must specify either cityId or city": "You must specify either cityId or city",
      "This tag belongs to another game": "This tag belongs to another game"
    },
    "input": {
      "Name": "Name of the game (should contain «Clean Games»)",
      "Tag": "Link to the game",
      "Poster": "Poster (attach a picture in .jpg or .png format)",
      "Date": "Date",
      "Time": "Time",
      "Country": "Country",
      "Region": "Region",
      "City": "City",
      "Main organizer": "Main organizer",
      "Contact person": "Contact person",
      "Staff coordinates": "Staff coordinates",
      "Rules": "Safety rules",
      "Description": "Description",
      "VK group": "VK group",
      "FB group": "FB group",
      "Game rules": "Rules",
      "Tooltip for the name of the game": "Accordingly to 2.3.4 of the Agreement of Understanding",
      "Tooltip for the tag": "Here you can specify URL of your game",
      "Tooltip for the main organizer": "Has access to all functions to manage game",
      "Max teammates": "Max teammates",
      "Show in public list": "Show in public list",
      "New city": "New city",
      "Corporate game": "Corporate game",
      "Customer": "Customer"
    },
    "status": {
      "UNAPPROVED": "Waiting for approval",
      "APPROVED": "Approved",
      "REGISTRATION_OPENED": "Registration opened",
      "REGISTRATION_CLOSED": "Registration closed",
      "STARTED": "Started",
      "TESTING": "Testing",
      "COUNTING_RESULTS": "Counting results",
      "FINISHED": "Finished"
    },
    "title": "Game creation",
    "description": "All games must be registered on the site (even if the game will be held in an area without the Internet).\nAfter the game, all data (on participants, collected garbage, photo materials) must be entered on the site within 3 days.",
    "Choose game type": "Choose game type",
    "Formats": "Formats",
    "Choose kind": {
      "title": "Choose kind",
      "description": "Lorem ipsum dolor sit amet, consectetur adipisicing elit, sed do eiusmod\ntempor incididunt ut labore et dolore magna aliqua. Ut enim ad minim veniam,\nquis nostrud exercitation ullamco laboris nisi ut aliquip ex ea commodo\nconsequat. Duis aute irure dolor in reprehenderit in voluptate velit esse\ncillum dolore eu fugiat nulla pariatur. Excepteur sint occaecat cupidatat non\nproident, sunt in culpa qui officia deserunt mollit anim id est laborum."
    },
    "Choose format": {
      "title": "Choose format",
      "description": "Lorem ipsum dolor sit amet, consectetur adipisicing elit"
    },
    "Create without format": {
      "title": "Create without format",
      "description": "Ut enim ad minim veniam, quis nostrud exercitation ullamco laboris nisi ut aliquip ex ea commodo consequat"
    },
    "Button": "Create game",
    "Quest": "Quest",
    "Game passport": {
      "title": "Game passport",
      "description": "Game passport"
    },
    "Fill information about the game": "Fill information about the game",
    "Main settings": {
      "title": "Main information",
      "subtitle": "Here the initial parameters of your game are filled. After clicking the «Create Game» button, the game will be sent to the moderator. After confirmation, you can set the rules of the game and enter all the necessary information."
    },
    "Additional settings": {
      "title": "Additional settings"
    },
    "Admin settings": {
      "title": "Admin settings"
    },
    "footer": "Lorem ipsum dolor sit amet, consectetur adipisicing elit, sed do eiusmod\ntempor incididunt ut labore et dolore magna aliqua. Ut enim ad minim veniam,\nquis nostrud exercitation ullamco laboris nisi ut aliquip ex ea commodo\nconsequat. Duis aute irure dolor in reprehenderit in voluptate velit esse\ncillum dolore eu fugiat nulla pariatur. Excepteur sint occaecat cupidatat non\nproident, sunt in culpa qui officia deserunt mollit anim id est laborum."
  },
  "License agreement": {
    "title": "Agreement of understanding",
    "description": "In order to become an organizer, please carefully read and accept this agreement.",
    "subtitle": "You should accept the following conditions",
    "text": "To get organizer status you should accept all the following conditions and sign our Agreement of Understanding. You can download the Agreement below.",
    "Button description": "To upload the signed Agreement just click this button.",
    "Button": "Become an organizer",
    "Request has been successfully sent": "You have successfully sent a request to become organizer. Please, wait for moderator to approve your request.",
    "Request already sent": "You have already sent a request to become organizer. Please, wait for moderator to approve your request."
  },
  "New organizer": "New organizer",
  "Organizers": {
    "title": "Organizers",
    "Add organizer": "Add organizer",
    "Remove organizer": "Remove organizer",
    "PR manager": "PR manager",
    "Volunteers manager": "Volunteers manager",
    "Main organizer": "Main organizer",
    "Organizer assistant": "Organizer assistant"
  },
  "Game passport": {
    "title": "Game passport",
    "subtitle": "Fill all fields in each tab",
    "Task": "Task",
    "Manager": "Manager",
    "Result": "Result",
    "Confirm": "Confirm",
    "Add task": "Add task",
    "Remove task": "Remove task"
  },
  "About": {
    "title": "About",
    "Common": "Common",
    "Vkontakte": "Vkontakte",
    "Facebook": "Facebook",
    "Posts": "Posts",
    "Photos": "Photos",
    "Videos": "Videos",
    "Letters": "Letters",
    "Documents": "Documents",
    "Date": "Date",
    "Time": "Time",
    "Poster": "Poster",
    "VK group": "VK group"
  },
  "Game modules": {
    "title": "Game modules",
    "Garbage purchase": "Garbage purchase",
    "Artifact purchase": "Artifact purchase",
    "Artifacts": "Other activities",
    "Artifact": "Artifact",
    "Inventory sales": "Inventory sales",
    "Inventory": "Inventory",
    "Purchase": "Purchase",
    "Correction": "Correction",
    "correction placeholder": "Correction",
    "Checkins": "Checkins",
    "Checkin": "Checkin",
    "Photos": "Photos",
    "Photohunt": "Photohunt",
    "Purchases": "Purchases",
    "Riddles": "Riddles",
    "Riddle": "Riddle",
    "Mixed garbage": "Mixed garbage",
    "Plastic": "Plastic",
    "Metal": "Metal",
    "Glass": "Glass",
    "Batteries": "Batteries",
    "Cans": "Cans",
    "Tires": "Tires",
    "Big garbage": "Big garbage",
    "Max points for one artifact": "Max points for one artifact",
    "Max points for one riddle": "Max points for one riddle",
    "Truck": "Truck",
    "Rake": "Rake",
    "Shovel": "Shovel",
    "Stretcher": "Stretcher",
    "Net": "Net",
    "Add check-ins to the game": "Add check-ins to the game",
    "Check-in price": "Check-in price",
    "Photohunt price": "Photohunt price",
    "Photohunt repost price": "Photohunt repost price",
    "Check-in repost price": "Check-in repost price",
    "Add photos to the game": "Add photos to the game",
    "Add riddles to the game": "Add riddles to the game",
    "Default Comment": {
      "Mixed garbage": "Not accepted: mineral waste (ceramics, cement, concrete waste, bricks, asphalt); logs, boards and other wood waste.",
      "Plastic": "Only crumpled plastic PET bottles are accepted. Other types of plastic are disposed of in mixed waste.",
      "Metal": "Not rusty (or with a little rust).",
      "Glass": "Without land, water, cigarette butts, organics inside. Inappropriate glass is placed in mixed garbage bags.",
      "Batteries": "Only found at the game site. No more than 20 pieces per team per game.",
      "Cans": "Collected separately from the rest of the metal.",
      "Tires": "Without extraneous garbage and water.",
      "Big garbage": "Not accepted: mineral waste (ceramics, cement, concrete waste, bricks, asphalt); logs, boards and other wood waste.",
      "Max points for one artifact": "",
      "Max points for one riddle": "The maximum score for the riddle.",
      "Truck": "For fast delivery of heavy garbage. The price is for 1 pc.",
      "Rake": "For raking small debris. The price is for 1 pc.",
      "Shovel": "For large garbage piles. The price is for 1 pc.",
      "Stretcher": "For carrying heavy garbage. The price is for 1 pc.",
      "Net": "For catching garbage from water. The price is for 1 pc."
    }
  },
  "Tech modules": {
    "title": "Tech modules",
    "Rain cover": "Rain cover",
    "Power supply": "Power supply",
    "Toilet": "Toilet",
    "Not-provided": "Not provided",
    "Bio-toilet": "Bio toilet",
    "Camp-toilet": "Camp toilet",
    "Generator": "Generator",
    "Raincoat": "Raincoat",
    "Tent": "Tent",
    "Tent-star": "Tent-star"
  },
  "AHCH": {
    "title": "AHCH"
  },
  "Specialists": {
    "title": "Specialists",
    "Add specialist": "Add specialist",
    "Remove specialist": "Remove specialist"
  },
  "Sponsors": {
    "title": "Sponsors",
    "Add sponsor": "Add sponsor",
    "Remove sponsor": "Remove sponsor"
  },
  "Place": {
    "title": "Place"
  },
  "Volunteers": {
    "title": "Volunteers",
    "Coordinator tasks": "Coordinator tasks",
    "List of volunteers": "List of volunteers",
    "Add volunteer": "Add volunteer",
    "Remove volunteer": "Remove volunteer"
  },
  "Polygraphy": {
    "title": "Polygraphy",
    "Recommended polygraphy": "Recommended polygraphy",
    "Official polygraphy": "Optional polygraphy",
    "Layout link": "Layout link",
    "Format": "Format",
    "Paper type": "Paper type",
    "Edition": "Edition"
  },
  "Scenario": {
    "title": "Scenario"
  },
  "Post-production": {
    "title": "Post-production"
  },
  "Reward": {
    "title": "Reward"
  },
  "Guests": {
    "title": "Guests",
    "Position": "Position",
    "Invited": "Invited",
    "Came": "Came",
    "Not_came": "Not came",
    "Set status": "Set status"
  },
  "Other": {
    "title": "Other"
  },
  "General sponsor": "General sponsor",
  "Sponsor": "Sponsor",
  "Info partner": "Info partner",
  "Partner": "Partner",
  "Error": "Error",
  "Errors": {
    "Access denied": "Access denied",
    "Action has been blocked": "Action has been blocked. Please contact Support.",
    "Invalid email or password": "Invalid email and/or password.",
    "Please set password": "Please set password.",
    "The request failed, please try again later or contact technical support": "The request failed, please try again later or contact technical support.",
    "First name is too short": "First name is too short",
    "You should upload two photos to make check-in": "You should upload two photos to make check-in",
    "You should upload a photo to make photohunt": "You should upload a photo to make photohunt",
    "You must select at least one item with non-zero quantity": "You must select at least one item with non-zero quantity",
    "Module can't be removed if it has at least one purchase": "Module can't be removed if it has at least one purchase",
    "Not enough game points": "Not enough game points",
    "This activity is not allowed at this game": "This activity is not allowed at this game",
    "Please set geo location": "Please provide coordinates / location. If the place is not currently known, indicate approximately",
    "This name belongs to another team": "This name belongs to another team",
    "This number belongs to another team": "This number belongs to another team",
    "You are not allowed to set some of specified game settings": "You are not allowed to set some of specified game settings",
    "That team has associated game events, remove them first to continue": "That team has associated game events. Remove them first to continue"
  }
}
