{
	"thisLanguage": "ES",
	"Access is denied": "Acceso prohibido",
	"All rights reserved": "Reservados todos los derechos",
	"Download mobile app": "Descargar la aplicación",
	"Attach file": "Adjuntar archivo ",
	"Click on this area or drag file(s) to it": "Haga un click sobre esta área o arrastre aquí el (los) archivo(s)",
	"Upload selected file(s)": "Subir el (los) archivo(s) elegido(s)",
	"Clean Games": "Los Clean Games",
	"Go back to the previous page": "Volver a la página anterior",
	"Go back to the main page": "Volver a la página principal",
	"Go back to the game page": "Volver a la página del juego",
	"Go back to the tournament page": "Volver a la página del torneo",
	"Play": "Jugar",
	"Create Game": "Crear un juego",
	"Create purchase": "Crear una compra",
	"Game editing": "Modificar el juego",
	"Tournament editing": "Modificar el torneo",
	"World": "El mundo",
	"Country": {
		"RU": "Rusia",
		"UA": "Ucrania"
	},
	"About us": "Sobre el proyecto",
	"Championship": "Campeonato",
	"Tournaments": "Torneos",
	"Organize": "Organizar",
	"Organization": "Organización",
	"Help": "Ayudar",
	"Search": "Buscar",
	"Search team": "Buscar el equipo",
	"Search by team": "Buscar por equipo",
	"Search by name": "Buscar por nombre",
	"Search by city": "Buscar por ciudad",
	"Type name of the city": "Introduzca el nombre de la ciudad y pulse Enter",
	"Type name of the game you want to find": "Introduzca el nombre del juego que quiera encontrar",
	"For business": "Para los empresarios",
	"For governments": "Para las autoridades",
	"Contacts": "Contactos",
	"Instructions": "Instrucciones",
	"Remove": "Eliminar",
	"Remove file": "Eliminar el archivo",
	"Edit": "Editar",
	"Save": "Guardar",
	"Main page": "Página principal",
	"Main info": "Información básica",
	"Tabs": "Las pestañas",
	"or use social network account": "o use su cuenta de las redes sociales",
	"Profile": "El perfil",
	"Repeat password": "Repita la contraseña",
	"New password": "La nueva contraseña",
	"Repeat new password": "Repita la nueva contraseña",
	"Type new password": "Introduzca la nueva contraseña",
	"Type your current password": "Introduzca la contraseña actual",
	"Free space for notes": "Espacio para notas",
	"Change password": "Cambiar la contraseña",
	"Files": "Archivos",
	"Loading": "Se está cargando",
	"Old password": "La contraseña anterior",
	"Invalid parameters": "Parámetros incorrectos",
	"Set new password": "Fijar la nueva contraseña",
	"Confirm password entered": "Confirmar la contraseña introducida",
	"Please fill this field": "Rellene este espacio para poder continuar",
	"Login": "Login",
	"Log in": "Entrar",
	"Log out": "Salir",
	"Reset password": "Restablecer la contraseña",
	"Not yet registered?": "¿Todavía no registrado?",
	"Registration": "Registración",
	"Sign up": "Registrarse",
	"Already registered?": "¿Ya registrado?",
	"Confirm new password": "Confirme la nueva contraseña",
	"Password": "La contraseña",
	"Confirm password": "Confirme la contraseña",
	"Forgot password?": "¿Olvidó su contraseña?",
	"What is this": "¿Qué es",
	"Pending": "Pendiente",
	"Approve": "Aprobar",
	"Approved": "Aprobado",
	"Reject": "Rechazar",
	"Rejected": "Rechazado",
	"Action": "Acción",
	"Actions": "Acciones",
	"Add": "Añadir",
	"Create new one": "Crear",
	"Create": "Crear",
	"Open": "Abrir",
	"Yes": "Sí",
	"No": "No",
	"Select": "Elegir",
	"Send": "Remitir",
	"User": "Usuario",
	"Role": "Rol",
	"Ban": "Bloqueo",
	"Banned": "Bloqueado",
	"Site": "La página web",
	"Logo": "Logo",
	"Company name": "Nombre de la compañía",
	"Phone": "Teléfono",
	"Your name": "Su nombre",
	"Full name": "Nombre completo",
	"First name": "Nombre",
	"Last name": "Apellido",
	"Social account": "Cuenta de la red social",
	"In social networks": "En las redes sociales",
	"Vkontakte": "Vkontakte",
	"Facebook": "Facebook",
	"Share": "Compartir",
	"Status": "Estado",
	"Type": "Tipo",
	"Designer": "Diseñador",
	"Contact": "Contacto",
	"Comment": "Comentario",
	"Game Module Comment": "Descripción detallada (puede ser vista por los jugadores a la hora de leer las reglas del juego)",
	"Module": "Módulo",
	"List of games": "Lista de juegos",
	"List of tournaments": "Lista de torneos",
	"Past games": "Juegos anteriores",
	"Coming games": "Próximos juegos",
	"Admin panel": "Panel de administración",
	"Incorrect code for email confirmation": "Código de confirmación de correo electrónico introducido incorrectamente",
	"admin": {
		"agreement": {
			"title": "Acuerdo",
			"description": "Aquí se puede editar el Acuerdo en diferentes idiomas.",
			"selectLang": "Elija el idioma del Acuerdo:",
			"addButton": "Añadir un nuevo punto",
			"modalTitle": "Modificar el punto del Acuerdo",
			"saveButton": "Guardar",
			"cancelButton": "Cancelar"
		}
	},
	"Map": "Mapa",
	"List": "Lista",
	"Show all details": "Mostrar todos los detalles",
	"Events": "Eventos",
	"Teams": "Equipos",
	"Team": "Equipo",
	"Category": "Categoría",
	"Time": "Tiempo",
	"Photo": "Foto",
	"Mailing": "Distribución de correos",
	"Points": "Puntos",
	"Point": "Punto",
	"GamePoints": "Puntos",
	"GamePoint": "Punto",
	"GamePoint(s)": "Punto(s)",
	"GamePoints for unit": "Puntos por un artículo",
	"Activities": "Actividades",
	"Participant": "Participante",
	"Search participant": "Buscar a un participante",
	"Participants": "Participantes",
	"Organizer": "Organizador",
	"Volunteer": "Voluntario",
	"Become a volunteer": "Convertirse en un voluntario",
	"Want to be a volunteer": "Quiero ser un voluntario",
	"Show players that want to be volunteers": "Mostrar a los jugadores que quieren ser voluntarios",
	"Moderator": "Organizador",
	"Administrator": "Administrador",
	"Admin": "Administrador",
	"Player": "Jugador",
	"Start tournament": "Empezar el torneo",
	"Finish tournament": "Terminar el torneo",
	"Cancel tournament": "Cancelar el torneo",
	"Start game": "Empezar el juego",
	"Finish game": "Terminar el juego",
	"Cancel game": "Cancelar el juego",
	"Join game": "Participar",
	"Leave game": "No participar",
	"Count results": "Cálculo de los resultados",
	"Total trash weight": "El peso total de la basura",
	"Number of bags of garbage": "Bolsas de basura",
	"Teams that made check-ins, %": "% de equipos que han hecho check-ins",
	"Teams that made check-ins": "El número de equipos que han hecho check-ins",
	"Number of check-ins": "El número total de los check-ins",
	"Number of countries": "Países",
	"Number of cities": "Poblaciones",
	"Number of games": "Juegos",
	"Number of teams": "Equipos",
	"Number of players": "El número de los jugadores",
	"Number of volunteers": "El número de voluntarios",
	"Number of organizers": "El número de organizadores",
	"Number of participants": "El número de los participantes",
	"Total number of participants": "Total de participantes",
	"Status of participation": "Estado de participación",
	"Status of the game": "Estado del juego",
	"You are a participant": "Participa Usted en el juego",
	"You are not a participant": "No participa Usted en el juego",
	"Reset game status": "Restablecer el estado del juego",
	"Create check-in": "Crear un check-in",
	"All events": "Todos los eventos",
	"All participants": "Todos los participantes",
	"All teams": "Todos los equipos",
	"Quest": "Juego de pistas",
	"Extra": "Adicionalmente",
	"Rating": "Ranking",
	"Before cleaning": "Antes de limpiar",
	"After cleaning": "Después de limpiar",
	"Your team": "Su equipo",
	"Name of the team": "El nombre del equipo",
	"Information": "Información",
	"Send invitation": "Añadir a un usuario",
	"Join team": "Unirse al equipo",
	"Leave team": "Salir del equipo",
	"Create team": "Crear un equipo",
	"Edit organizers": "Editar los datos sobre los organizadores",
	"Manage tournament": "Gestión del torneo",
	"Manage game": "Gestión del juego",
	"Tournament settings": "Ajustes del torneo",
	"Game settings": "Ajustes del juego",
	"Game stats": "Estadísticas del juego",
	"Tournament stats": "Estadísticas del torneo",
	"Preliminary results": "Resultados preliminares",
	"Requirements": "Requisitos",
	"Choose": "Elegir",
	"Select country": "Elegir el país",
	"Select region": "Elegir el área",
	"Select city": "Elegir la ciudad",
	"Bag": "Bolsa",
	"Bags": "Bolsas",
	"Weight": "Peso",
	"Garbage": "Basura",
	"Store and purchase": "Almacenar y comprar",
	"Basecamp": "Sede del juego",
	"Summary": "Total",
	"Units": {
		"title": "Unidad de medida",
		"Meter": "Metro(s)",
		"Gram": "Gramo(s)",
		"Kilogram": "Kilogramo",
		"Kilograms": "Kilogramos",
		"Ton": "Toneladas",
		"Tons": "Toneladas",
		"Peace": "Pieza",
		"Peaces": "Piezas",
		"Bag": "Bolsa",
		"Bags": "Bolsas",
		"Point": "Punto(s)",
		"Points": "Puntos"
	},
	"Game map": {
		"Create new point": "Añadir una localización al mapa",
		"Edit point": "Editar la localización",
		"Type of the point": "Tipo de localización",
		"Choose type": "Elegir el tipo",
		"Choose radius": "Elegir el radio",
		"Radius of the point": "Radio de la localización"
	},
	"Notification": {
		"Role requested": {
			"title": "Pedir cambiar el rol",
			"text": "El usuario ha pedido que le cambien el rol"
		},
		"Role approved": {
			"title": "Solicitud aprobada",
			"text": "Su solicitud de obtener el rol del Organizador ha sido aprobada"
		},
		"Role rejected": {
			"title": "Solicitud rechazada",
			"text": "Su solicitud de obtener el rol del Organizador ha sido rechazada"
		},
		"Game created": {
			"title": "Nuevo juego",
			"text": "El juego \"{{gameName}}\" en espera de ser moderado"
		},
		"Game approved": {
			"title": "El juego ha sido aprobado",
			"text": "Su juego \"{{gameName}}\" ha sido aprobado"
		},
		"Game rejected": {
			"title": "El juego no pudo ser aprobado",
			"text": "Su juego \"{{gameName}}\" no pudo ser aprobado"
		}
	},
	"Team groups": {
		"Common": "Común",
		"General": "Común",
		"Children": "Niños"
	},
	"Game team": {
		"Came": "Han venido",
		"Number": "Número del equipo",
		"Members": "Participantes",
		"Manage team members": "Manejar la composición del equipo",
		"Reset numeration": "Restablecer la numeración",
		"Is it you?": "Es Usted?",
		"Invite player": "Invitar a un jugador",
		"Add player": "Añadir a un jugador",
		"Invite unregistered user": "Invitar a un usuario no registrado",
		"Add unregistered player": "Añadir a un usuario no registrado",
		"Type name of the team": "Introduzca el nombre del equipo",
		"Type category of team": "Introduzca la categoría del equipo",
		"Choose team": "Elegir el equipo"
	},
	"Game status": {
		"UNAPPROVED": "Pendiente de aprobación por parte del moderador",
		"APPROVED": "Aprobado",
		"REGISTRATION_OPENED": "Registración abierta",
		"REGISTRATION_CLOSED": "Registración cerrada",
		"PURCHASE_OPENED": "Compra abierta",
		"PURCHASE_CLOSED": "Compra cerrada",
		"STARTED": "Juego en marcha",
		"TESTING": "Juego en modo de prueba",
		"COUNTING_RESULTS": "Cálculo de los resultados",
		"CANCELED": "Juego cancelado",
		"FINISHED": "Juego terminado"
	},
	"Game rules": {
		"The bag must be filled": "Atención! Al menos 2/3 deben ser llenados (si la bolsa contiene vidrio, entonces se trata de la 1/2). La bolsa llenada con el volumen inferior al indicado le otorgará menos puntos (salvo los casos cuando la bolsa pesa mucho).",
		"Collect the trash and give it to the warehouse to the buyer": "Recoja la basura y llévela al almácen",
		"Separate trash and get more": "Clasifique la basura y obtenga más puntos",
		"Perform additional activities": "Participe en las actividades adicionales",
		"Guess riddles": "Adivine los acertijos",
		"At the start of the game, each team gets two riddles.": "Si adivina el acertijo, le otorgorán más puntos al ranking de su equipo.",
		"Buy inventory": "Compre el inventaro",
		"Inventory description": "Para recoger la basura de modo más rápido y eficiente, puede comprar el inventario con los puntos ganados.",
		"Make checks during the game": "Haga los check-ins durante el juego",
		"Checkins description": "Hacer el check-in es señalar el local antes y después de ser limpiado subiendo las fotos. Haciendo check-ins Usted contribuye a la creación de un mapa interactivo de los lugares con la basura acumulada, que ayudará en el futuro a mantenerlos limpios.",
		"Participate in contests": "Participe en las competiciones",
		"Do photo hunting": "Haga fotos de la naturaleza",
		"Default security rules": "<p>1. Antes de comenzar el juego, verifique si tiene Usted ropa, zapatos y equipo de protección personal (guantes) adecuados.\n<p>2. Cuando use el inventario, informe inmediatamente a los organizadores sobre todos sus defectos..\n<p>3. Cuando recoja la basura, mire debajo de sus pies y mire dónde está Usted corriendo. .\n<p>4.  La recolección de basura se lleva a cabo sólo en el territorio designado en el mapa que le entregan durante la registración, o en el territorio limitado en el terreno. No vaya más allá de este territorio, puede ser peligroso.\n<p>5. Observe las precauciones de seguridad personal. Si hay  (o aparecieron)  secciones peligrosas en su ruta , opte por una solución alternativa. Notifique a los organizadores de todas las áreas peligrosas. \n<p>6.Tenga cuidado al recoger basura cerca de barrancos, pozos y manantiales. Puede ser peligrosos. \n<p>7. Cuando recoja la basura, tenga especial cuidado con el vidrio: a menudo se presenta en forma de fragmentos y puede causar daño. Asegúrese de que las bolsas de basura con vidrio no se froten contra sus pies. \n<p>8. Durante el juego, cuando esté cerca de la calzada, observe el código de circulación. \n<p>9. Cuando esté cerca de instalaciones de abastecimiento de agua, observe las reglas para permanecer allí: no entre al agua, mantenga una distancia segura. \n<p>10. Si se ha lesionado, comuníquese inmediatamente con la sede, allí le prestarán los primeros auxilios. \n<p>11. Si ha encontrado en el territorio algo que le parezca peligroso, no lo toque, no lo tire en una bolsa, informe inmediatamente a los organizadores. \n<p>12. Antes de comenzar el juego, si es necesario, use repelentes aerosol para protegerse contra las picaduras de los insectos. El cómo usar los repelentes está descrito en detalle en los embalajes."
	},
	"Game tasks": {
		"Task": "Задача",
		"Date": "Дата",
		"Manager": "Ответственный",
		"Result": "Результат",
		"Confirm": "Подтвердить",
		"Add task": "Добавить задачу",
		"Remove task": "Удалить задачу"
	},
	"Game formats": {
		"Small": "Малый",
		"Medium": "Средний",
		"Big": "Большой",
		"Max": "Максимальный",
		"Copyrights": "Символика ЧИ",
		"Mobile app": "Моб. приложение",
		"Website": "Сайт",
		"Bio toilets": "Биотуалеты",
		"Scene": "Сцена",
		"Photohunt": "Фотоохота"
	},
	"Create tournament": {
		"errors": {
			"This tag belongs to another tournament": "El tag introducido ya se usa en otro torneo"
		},
		"input": {
			"Name": "Nombre del torneo",
			"Tag": "Enlace de torneo",
			"Poster": "Cartel",
			"Date": "Fecha de celebración",
			"Time": "Hora de celebración",
			"Rules": "Técnica de seguridad",
			"Description": "Descripción del torneo",
			"Game rules": "Reglas del juego y técnica de seguridad"
		},
		"status": {
			"UNAPPROVED": "Pendiente de una aprobación",
			"APPROVED": "Aprobado",
			"REGISTRATION_OPENED": "Registración abierta",
			"REGISTRATION_CLOSED": "Registración cerrada",
			"STARTED": "Empezado",
			"TESTING": "Modo de prueba",
			"COUNTING_RESULTS": "Cálculo de los resultados",
			"FINISHED": "Terminado"
		},
		"title": "Creación de torneos",
		"description": "Un torneo es una competencia de equipo entre varios juegos. El torneo combina diferentes juegos con un único sistema de clasificación y, por regla general, con reglas uniformes.",
		"Button": "Crear torneo",
		"Tournament passport": {
			"title": "Pasaporte de torneo",
			"description": "Lorem ipsum dolor sit amet, consectetur adipisicing elit."
		},
		"Fill information about the tournament": "Complete la información del torneo",
		"Main settings": {
			"title": "Informacion Basica",
			"subtitle": "Complete el nombre y la descripción del torneo, determine la fecha o el período del torneo y agregue un póster. También ingrese la dirección donde puede encontrar la página del torneo."
		},
		"Additional settings": {
			"title": "Configuraciones avanzadas"
		},
		"Admin settings": {
			"title": "Configuraciones de administrador"
		},
		"footer": "Lorem ipsum dolor sit amet, consectetur adipisicing elit, sed do eiusmod\ntempor incididunt ut labore et dolore magna aliqua. Ut enim ad minim veniam,\nquis nostrud exercitation ullamco laboris nisi ut aliquip ex ea commodo\nconsequat. Duis aute irure dolor in reprehenderit in voluptate velit esse\ncillum dolore eu fugiat nulla pariatur. Excepteur sint occaecat cupidatat non\nproident, sunt in culpa qui officia deserunt mollit anim id est laborum."
	},
	"Create game": {
		"errors": {
			"You must specify either regionId or region": "Elija la región de la lista o introduzca su nombre",
			"You must specify either cityId or city": "Elija la ciudad de la lista o introduzca su nombre",
			"This tag belongs to another game": "La dirección indicada ya se usa en el otro juego"
		},
		"input": {
			"Name": "Nombre del juego (debe contener «Clean Games»)",
			"Tag": "Dirección del juego en la página web",
			"Poster": "Cartel (adjunte una imagen en formato .jpg o .png)",
			"Date": "Fecha de celebración",
			"Time": "Hora de celebración",
			"Country": "País",
			"Region": "Región",
			"City": "Ciudad",
			"Main organizer": "Organizador principal",
			"Contact person": "Persona de contacto",
			"Staff coordinates": "Coordenadas de la sede",
			"Rules": "Técnica de seguridad",
			"Description": "Descripción del juego",
			"VK group": "Dirección del grupo en VK",
			"FB group": "Dirección del grupo en FB",
			"Game rules": "Reglas del juego y técnica de seguridad",
			"Tooltip for the name of the game": "Con arreglo al punto 2.3.4 del Acuerdo de entendimiento",
			"Tooltip for the tag": "Aquí puede establecer cuál será la dirección de su juego en la página web",
			"Tooltip for the main organizer": "Tiene el acceso a todas las funciones de gestión del juego y al pasaporte del juego",
			"Max teammates": "Tamaño máximo de un equipo",
			"Show in public list": "Mostrar en la lista general",
			"New city": "Nueva ciudad / población ",
			"Corporate game": "Juego corporativo",
			"Customer": "Cliente"
		},
		"status": {
			"UNAPPROVED": "Pendiente de una aprobación",
			"APPROVED": "Aprobado",
			"REGISTRATION_OPENED": "Registración abierta",
			"REGISTRATION_CLOSED": "Registración cerrada",
			"STARTED": "Empezado",
			"TESTING": "Modo de prueba",
			"COUNTING_RESULTS": "Cálculo de los resultados",
			"FINISHED": "Terminado"
		},
		"title": "Creación de juegos",
		"description": "Todos los juegos deben estar registrados en el sitio (incluso si el juego se llevará a cabo en un área sin Internet).\nDespués del juego, todos los datos (de los participantes, basura recolectada, material fotográfico) deben ingresarse en el sitio dentro de 3 días .",
		"Choose game type": "Elige tipo de juego",
		"Formats": "Форматы",
		"Choose kind": {
			"title": "Выберите вид",
			"description": "Lorem ipsum dolor sit amet, consectetur adipisicing elit, sed do eiusmod\ntempor incididunt ut labore et dolore magna aliqua. Ut enim ad minim veniam,\nquis nostrud exercitation ullamco laboris nisi ut aliquip ex ea commodo\nconsequat. Duis aute irure dolor in reprehenderit in voluptate velit esse\ncillum dolore eu fugiat nulla pariatur. Excepteur sint occaecat cupidatat non\nproident, sunt in culpa qui officia deserunt mollit anim id est laborum."
		},
		"Choose format": {
			"title": "Выберите формат игры",
			"description": "Lorem ipsum dolor sit amet, consectetur adipisicing elit"
		},
		"Create without format": {
			"title": "Создать без формата",
			"description": "Ut enim ad minim veniam, quis nostrud exercitation ullamco laboris nisi ut aliquip ex ea commodo consequat"
		},
		"Button": "Crear juego",
		"Quest": "Quest",
		"Game passport": {
			"title": "Pasaporte del juego",
			"description": "Lorem ipsum dolor sit amet, consectetur adipisicing elit."
		},
		"Fill information about the game": "Introduzca la información sobre el juego",
		"Main settings": {
			"title": "Información básica",
			"subtitle": "Aquí se completan los parámetros iniciales de tu juego. Después de hacer clic en el botón «Crear juego», el juego se enviará al moderador. Después de la confirmación, puede establecer las reglas del juego e ingresar toda la información necesaria."
		},
		"Additional settings": {
			"title": "Ajustes adicionales"
		},
		"Admin settings": {
			"title": "Ajustes del administrador"
		},
		"footer": "Lorem ipsum dolor sit amet, consectetur adipisicing elit, sed do eiusmod\ntempor incididunt ut labore et dolore magna aliqua. Ut enim ad minim veniam,\nquis nostrud exercitation ullamco laboris nisi ut aliquip ex ea commodo\nconsequat. Duis aute irure dolor in reprehenderit in voluptate velit esse\ncillum dolore eu fugiat nulla pariatur. Excepteur sint occaecat cupidatat non\nproident, sunt in culpa qui officia deserunt mollit anim id est laborum."
	},
	"License agreement": {
		"title": "El acuerdo sobre el uso de \nla metodología de los Clean Games",
		"description": "Para ser un organizador, familiarícese atentamente con el presente Acuerdo y acéptelo.",
		"subtitle": "El organizador se compromete a cumplir las siguientes condiciones",
		"text": "Para ser un organizador de los Clean Games, debe aceptar todos los puntos del Acuerdo y firmarlo. El modelo del Acuerdo puede ser descargado por el enlace que se encuentra abajo.",
		"Button description": "Se puede descargar el Acuerdo firmado haciendo un clikc en el botón abajo.",
		"Button": "Convertirse en un organizador",
		"Request has been successfully sent": "Su solicitud ha sido mandada. Por favor espere a que sea procesada por el moderador de la página web.",
		"Request already sent": "Ya han enviado su solicitud. Por favor espere a que sea procesada por el moderador de la página web."
	},
	"Organizers": {
		"title": "Организаторы",
		"Add organizer": "Добавить организатора",
		"Remove organizer": "Удалить организатора",
		"PR manager": "Ответственный за PR / SMM",
		"Volunteers manager": "Координатор волонтеров",
		"Main organizer": "Главный организатор",
		"Organizer assistant": "Помощник главного организатора"
	},
	"Game passport": {
		"title": "Паспорт игры",
		"subtitle": "Заполните все поля во вкладках",
		"Task": "Задача",
		"Manager": "Ответственный",
		"Result": "Результат",
		"Confirm": "Подтвердить",
		"Add task": "Добавить задачу"
	},
	"About": {
		"title": "О мероприятии",
		"Common": "Общие",
		"Vkontakte": "Вконтакте",
		"Facebook": "Facebook",
		"Posts": "Публикации о мероприятии",
		"Photos": "Фото с игры",
		"Videos": "Видео с игры",
		"Letters": "Благодарственные письма",
		"Documents": "Отчетные документы по игре",
		"Date": "Дата проведения",
		"Time": "Время проведения",
		"Poster": "Афиша",
		"VK group": "Группа ВК"
	},
	"Game modules": {
		"title": "Módulos de juego",
		"Garbage purchase": "Compra de basura",
		"Artifact purchase": "Compra de artefactos",
		"Artifacts": "Otras actividades",
		"Artifact": "Artefacto",
		"Inventory sales": "Venta del inventario",
		"Inventory": "Inventario",
		"Purchase": "Compra",
		"Correction": "Corrección",
		"correction placeholder": "Corrección",
		"Checkins": "Check-ins",
		"Checkin": "Check-in",
		"Photos": "Fotografía de la naturaleza",
		"Photohunt": "Fotografía de la naturaleza",
		"Riddles": "Acertijos",
		"Riddle": "Acertijo",
		"Mixed garbage": "Basura mixta",
		"Plastic": "Plástico",
		"Metal": "Metal",
		"Glass": "Vidrio",
		"Batteries": "Pilas",
		"Cans": "Latas de aluminio",
		"Tires": "Cubiertas",
		"Big garbage": "Basura de tamaño grande",
		"Max points for one artifact": "Puntaje máximo por un artefacto",
		"Max points for one riddle": "Puntaje máximo por un acertijo",
		"Truck": "Carretilla",
		"Rake": "Rastrillo",
		"Shovel": "Pala",
		"Stretcher": "Camilla",
		"Net": "Salabre",
		"Add check-ins to the game": "Añadir los check-ins al juego",
		"Check-in price": "El precio de un check-in",
		"Photohunt price": "El precio de la foto de la naturaleza",
		"Photohunt repost price": "El precio de reproducir un post con la foto de la naturaleza en las redes sociales",
		"Check-in repost price": "El precio de reproducir un post con el check-in en las redes sociales",
		"Add photos to the game": "Añadir las fotos de la naturaleza al juego",
		"Add riddles to the game": "Añadir los acertijos al juego",
		"Default Comment": {
			"Mixed garbage": "No se aceptan: residuos minerales (cerámica, cemento, residuos de hormigón, ladrillos, asfalto);  troncos, tablas y otros residuos de madera.",
			"Plastic": "Se aceptan solamente las botellas plásticas apretadas hechas de PET. Otro tipo de plástico se entrega como basura mixta.",
			"Metal": "No oxidado (o con poca cantidad de herrumbre).",
			"Glass": "Sin tierra, agua, colillas, abonos órganicos dentro. El vidrio que no corresponde a estos requisitos se entrega en bolsas de basura mixta.",
			"Batteries": "Sólo las que fueron encontradas en el lugar de celebración del juego. No más de 20 pilas por un equipo durante un solo juego. ",
			"Cans": "Se recogen aparte de otro metal.",
			"Tires": "No se aceptan: residuos minerales (cerámica, cemento, residuos de hormigón, ladrillos, asfalto);  troncos, tablas y otros residuos de madera.",
			"Big garbage": "Sin residuos accesorios y sin agua.",
			"Max points for one artifact": "",
			"Max points for one riddle": "Puntaje máximo por un acertijo",
			"Truck": "Para la transportación rápida de basura pesada. El precio indicado es por 1 pieza.",
			"Rake": "Para rastrillar desechos pequeños. El precio indicado es por 1 pieza.",
			"Shovel": "Para grandes pilas de basura. El precio indicado es por 1 pieza.",
			"Stretcher": "Para el traslado de desechos pesados. El precio indicado es por 1 pieza.",
			"Net": "Para pescar los desechos de agua. El precio indicado es por 1 pieza."
		}
	},
	"Tech modules": {
		"title": "Технические модули",
		"Rain cover": "Укрытие от дождя",
		"Power supply": "Электроснабжение",
		"Toilet": "Туалет",
		"Not-provided": "Не предусмотрено",
		"Bio-toilet": "Био туалет",
		"Camp-toilet": "Походный туалет",
		"Generator": "Генератор",
		"Raincoat": "Дождевик",
		"Tent": "Шатер",
		"Tent-star": "Шатер-звезда"
	},
	"AHCH": {
		"title": "АХЧ"
	},
	"Specialists": {
		"title": "Специалисты",
		"Add specialist": "Добавить специалиста",
		"Remove specialist": "Удалить специалиста"
	},
	"Sponsors": {
		"title": "Patrocinadores",
		"Add sponsor": "Añadir patrocinador",
		"Remove sponsor": "Eliminar patrocinador"
	},
	"Place": {
		"title": "Место"
	},
	"Volunteers": {
		"title": "Волонтеры",
		"Coordinator tasks": "Задачи координатора",
		"List of volunteers": "Список волонтеров",
		"Add volunteer": "Добавить волонтера",
		"Remove volunteer": "Удалить волонтера"
	},
	"Polygraphy": {
		"title": "Полиграфия",
		"Recommended polygraphy": "Рекомендуемая полиграфия",
		"Official polygraphy": "Опциональная полиграфия",
		"Layout link": "Ссылка на макет",
		"Format": "Формат",
		"Paper type": "Тип бумаги",
		"Edition": "Тираж"
	},
	"Scenario": {
		"title": "Сценарий"
	},
	"Post-production": {
		"title": "Пост-продакшн"
	},
	"Reward": {
		"title": "Награждение"
	},
	"Guests": {
		"title": "Гости",
		"Position": "Должность",
		"Invited": "Приглашен",
		"Came": "Пришел",
		"Not_came": "Не пришел",
		"Set status": "Укажите статус"
	},
	"Other": {
		"title": "Прочее"
	},
	"General sponsor": "Patrocinador general",
	"Sponsor": "Patrocinador",
	"Info partner": "Socio de información",
	"Partner": "Socio",
	"Error": "Error",
	"Errors": {
		"Access denied": "Acceso prohibido",
		"Action has been blocked": "Operación ha sido bloqueada. Comuníquese con el servicio de soporte técnico.",
		"Invalid email or password": "Contraseña y/o correo electrónico incorrectos.",
		"Please set password": "Hay que indicar la contraseña.",
		"The request failed, please try again later or contact technical support": "No se pudo cumplir su solicitud, inténtelo más tarde o comuníquese con el servicio de soporte técnico.",
		"First name is too short": "El nombre introducido es demasiado corto",
		"You should upload two photos to make check-in": "Hay que subir ambas fotografías para hacer un check-in",
		"You should upload a photo to make photohunt": "La categoría de fotos de la naturaleza no puede ser establecida sin subir la fotografía",
		"You must select at least one item with non-zero quantity": "Debe elegir al menos un artículo que supere la cantidad de сero",
		"Module can't be removed if it has at least one purchase": "El módulo no puede ser eliminado, si ya fue usado por lo menos en una compra",
		"Not enough game points": "No tienen los puntos suficientes",
		"This activity is not allowed at this game": "Esta acción no está disponible en el juego corriente.",
		"Please set geo location": "Indique las coordenadas o la localización. Si no se conoce el lugar todavía, especifique el lugar aproximado",
		"This name belongs to another team": "El nombre introducido pertenece a otro equipo",
		"This number belongs to another team": "El número introducido pertenece a otro equipo",
		"You are not allowed to set some of specified game settings": "No tiene acceso para instalar algunas configuraciones del juego.",
		"That team has associated game events, remove them first to continue": "Hay eventos de juego asociados con este equipo. Elimínelos para continuar."
	}
}