{
	"thisLanguage": "UA",
	"Access is denied": "Доступ заборонено",
	"All rights reserved": "Всі права зберігаються",
	"Download mobile app": "Завантажити додаток",
	"Attach file": "Прикріпити файл",
	"Click on this area or drag file(s) to it": "Клікніть на цю область або перетягніть на неї файл(и)",
	"Upload selected file(s)": "Завантажити обрані файл(и)",
	"Clean Games": "Чисті Ігри",
	"Go back to the previous page": "Повернутися на попередню сторінку",
	"Go back to the main page": "Повернутися на головну сторінку",
	"Go back to the game page": "Повернутися на сторінку гри",
	"Go back to the tournament page": "Повернутися на сторінку турніру",
	"Play": "Грати",
	"Create Game": "Створити Гру",
	"Create purchase": "Створити покупку",
	"Game editing": "Редагувати гру",
	"Tournament editing": "Редагування турніру",
	"World": "Світ",
	"Country": {
		"UKR": "Україна"
	},
	"About us": "Про проект",
	"Championship": "Чемпіонатт",
	"Tournaments": "Турніри",
	"Organize": "Організувати",
	"Organization": "Організація",
	"Help": "Допомога",
	"Search": "Пошук",
	"Search team": "Пошук команди",
	"Search by team": "Пошук по команді",
	"Search by name": "Пошук по імені",
	"For business": "Бізнесу",
	"For governments": "Владі",
	"Contacts": "Контакти",
	"Instructions": "Інструкції",
	"Remove": "Видалити",
	"Remove file": "Видалити файл",
	"Edit": "Редагувати",
	"Save": "Зберегти",
	"Main page": "Головна",
	"Main info": "Головна інформація",
	"Tabs": "Вкладки",
	"or use social network account": "або використовуйте акаунт соц.мережі",
	"Profile": "Профіль",
	"Repeat password": "Повторіть пароль",
	"New password": "Новий пароль",
	"Repeat new password": "Спробуйте новий пароль",
	"Type new password": "Введіть новий пароль",
	"Type your current password": "Введіть поточний пароль",
	"Free space for notes": "Вільне місце для нотаток",
	"Change password": "Змінити пароль",
	"Files": "Файли",
	"Loading": "Завантаження",
	"Old password": "Старий пароль",
	"Invalid parameters": "Деякі параметри",
	"Set new password": "Встановіть новий пароль",
	"Confirm password entered": "Підтвердіть введений пароль",
	"Please fill this field": "Будь ласка, заповніть це поле, щоб продовжити",
	"Login": "Вхід",
	"Log in": "Ввійти",
	"Log out": "Вийти",
	"Reset password": "Скинути пароль",
	"Not yet registered?": "Ще не зареєстровані?",
	"Registration": "Реєстрація",
	"Sign up": "Зареєструватися",
	"Already registered?": "Вже зареєстровані?",
	"Confirm new password": "Підтвердіть новий пароль",
	"Password": "Пароль",
	"Forgot password?": "Забули пароль?",
	"What is this": "Що це",
	"Pending": "В очікуванні",
	"Approve": "Схвалити",
	"Approved": "Схвалено",
	"Reject": "Відхилити",
	"Rejected": "Відхилено",
	"Action": "Дія",
	"Actions": "Дії",
	"Add": "Додати",
	"Create new one": "Створити новий",
	"Create": "Створити",
	"Open": "Відкрити",
	"Yes": "Так",
	"No": "Ні",
	"Select": "Обрати",
	"Send": "Відправити",
	"User": "Користувач",
	"Role": "Роль",
	"Ban": "Блокування",
	"Banned": "Заблокований",
	"Site": "Сайт",
	"Logo": "Лого",
	"Company name": "Назва компанії",
	"Phone": "Телефон",
	"Full name": "ПІБ",
	"First name": "Ім'я",
	"Last name": "Прізвище",
	"Social account": "Акаунт соц.мережі",
	"Status": "Статус",
	"Type": "Тип",
	"Designer": "Дизайнер",
	"Contact": "Контакт",
	"Comment": "Коментар",
	"Game Module Comment": "Докладний опис (відображається для гравців у правилах гри)",
	"Module": "Модуль",
	"List of games": "Список ігор",
	"List of tournaments": "Список турнірів",
	"Past games": "Пройдені ігри",
	"Coming games": "Найближчі ігри",
	"Admin panel": "Панель адміністратора",
	"Incorrect code for email confirmation": "Некоректний код підтведження ел. пошти",
	"admin": {
		"agreement": {
			"title": "Згода",
			"description": "Тут можна редагувати згоду для різних мов",
			"selectLang": "Оберіть мову угоди:",
			"addButton": "Додати новий пункт",
			"modalTitle": "Редагувати пункт Згоди",
			"saveButton": "Зберегти",
			"cancelButton": "Відміна"
		}
	},
	"Map": "Карта",
	"List": "Список",
	"Show all details": "Показати всі деталі",
	"Events": "Події",
	"Teams": "Команди",
	"Team": "Команда",
	"Category": "Категорія",
	"Time": "Час",
	"Photo": "Фото",
	"Mailing": "Розсилки",
	"Points": "Бали",
	"Point": "Бал",
	"GamePoints": "Ігрові очки",
	"GamePoint": "Бал",
	"GamePoint(s)": "Бал(ів)",
	"Activities": "Активність",
	"Participant": "Учасник",
	"Search participant": "Пошук учасника",
	"Participants": "Учасники",
	"Organizer": "Організатор",
	"Volunteer": "Волонтер",
	"Become a volunteer": "Стати волонтером",
	"Want to be a volunteer": "Хоче бути волонтером",
	"Show players that want to be volunteers": "Показати гравців, які хочуть бути волонтерами",
	"Moderator": "Організатор",
	"Administrator": "Адмиіністратор",
	"Admin": "Адмиіністратор",
	"Player": "Гравець",
	"Start tournament": "Розпочати турнір",
	"Finish tournament": "Завершити турнір",
	"Cancel tournament": "Відмінити турнір",
	"Start game": "Розпочати гру",
	"Finish game": "Завершити гру",
	"Cancel game": "Відмінити гру",
	"Join game": "Брати участь",
	"Leave game": "Не брати участі",
	"Count results": "Підрахунок результатів",
	"Total trash weight": "Загальна вага сміття",
	"Number of bags of garbage": "Номер сміттєвого мішку",
	"Number of cities": "Номер міста",
	"Number of games": "Номер гри",
	"Number of teams": "Номер команди",
	"Number of participants": "Кількість участі",
	"Status of participation": "Статус участі",
	"Status of the game": "Статус гри",
	"You are a participant": "Ви берете участь",
	"You are not a participant": "Ви не берете участі",
	"Reset game status": "Скинути статус гри",
	"Create check-in": "Створити чекин",
	"All events": "Всі події",
	"All participants": "Всі учасники",
	"All teams": "Всі команди",
	"Quest": "Квест",
	"Extra": "Додадково",
	"Rating": "Рейтинг",
	"Before cleaning": "До прибирання",
	"After cleaning": "Після прибирання",
	"Your team": "Ваша команда",
	"Name of the team": "Назва команди",
	"Information": "Інформація",
	"Send invitation": "Додати учасника",
	"Join team": "Вступити до команди",
	"Leave team": "Покинути команду",
	"Create team": "Створити команду",
	"Edit organizers": "Настройка организаторів",
	"Manage tournament": "Керування турніром",
	"Manage game": "Керування грою",
	"Tournament settings": "Настройки турніру",
	"Game settings": "Настройки гри",
	"Requirements": "Вимоги",
	"Choose": "Обрати",
	"Select country": "Обрати країну",
	"Select region": "Обрати регіон",
	"Select city": "Обрати місто",
	"Bag": "Пакет",
	"Bags": "Пакети",
	"Garbage": "Сміття",
	"Store and purchase": "Склад i скупка",
	"Basecamp": "Штаб гри",
	"Summary": "Разом",
	"Units": {
		"title": "Одиниця вимірювання",
		"Meter": "Метр(ів)",
		"Gram": "Грам(ів)",
		"Kilogram": "Кілограм",
		"Kilograms": "Кілограми",
		"Peace": "Частина",
		"Peaces": "Частини",
		"Bag": "Пакет",
		"Bags": "Пакети",
		"Point": "Бал",
		"Points": "Бали"
	},
	"Game map": {
		"Create new point": "Додавання точки на мапу",
		"Edit point": "Редагування точки",
		"Type of the point": "Тип точки",
		"Choose type": "Оберіть тип",
		"Choose radius": "Оберіть радіус",
		"Radius of the point": "Радіус точки"
	},
	"Notification": {
		"Role requested": {
			"title": "Запит на зміну ролі",
			"text": "Користувач надіслав запит на зміну ролі"
		},
		"Role approved": {
			"title": "Запит схвалено",
			"text": "Ваш запит на отримання ролі Організатор було схвалено"
		},
		"Role rejected": {
			"title": "Запит відхилено",
			"text": "Ваш запит на отримання ролі Організатор було відхилено"
		},
		"Game created": {
			"title": "Нова гра",
			"text": "Гра \"{{gameName}}\" очікує модерацію"
		},
		"Game approved": {
			"title": "Гра пройшла модерацію",
			"text": "Ваша гра \"{{gameName}}\" успішно пройшла модерацію"
		},
		"Game rejected": {
			"title": "Гра не сЗогла пройти модерацію",
			"text": "Ваша гра \"{{gameName}}\" не змогла пройти модерацію"
		}
	},
	"Team groups": {
		"Common": "Загальний",
		"General": "Загальний",
		"Children": "Діти"
	},
	"Game team": {
		"Came": "Прийшли",
		"Number": "Номер команди",
		"Members": "Учасники",
		"Manage team members": "Керування складом команди",
		"Reset numeration": "Скинути нумерацію",
		"Is it you?": "Це ви?",
		"Invite player": "Запросити гравця",
		"Add player": "Додати гравця",
		"Invite unregistered user": "Запросити незареєстрованого користувача",
		"Add unregistered player": "Додати незареєстрованого гравця",
		"Type name of the team": "Введіть назву команди",
		"Type category of team": "Оберіть категорію команди",
		"Choose team": "Оберіть команду"
	},
	"Game status": {
		"UNAPPROVED": "Очікує перевірки модератором",
		"APPROVED": "Пройшла перевіркуу",
		"REGISTRATION_OPENED": "Реєстрацію відкрито",
		"REGISTRATION_CLOSED": "Реєстрацію завершено",
		"PURCHASE_OPENED": "Скупка доступна",
		"PURCHASE_CLOSED": "Скупку закрито",
		"STARTED": "Гра триває",
		"TESTING": "Гра тестується",
		"COUNTING_RESULTS": "Підрахунок результатів",
		"CANCELED": "Гру відмінено",
		"FINISHED": "Гру завершено"
	},
	"Game rules": {
		"The bag must be filled": "Важно! Мешок должен быть заполнен на 2/3 (если мешок со стеклом, то на 1/2). За мешок, заполненный менее указанного объёма - начисляется меньшее число баллов (за исключением случаев, когда мешок тяжёлый)",
		"Collect the trash and give it to the warehouse to the buyer": "Собирайте мусор и сдавайте его на склад скупщику",
		"Separate trash and get more": "Разделяйте мусор и получайте больше",
		"Perform additional activities": "Выполняйте дополнительные активности",
		"Guess riddles": "Отгадывайте загадки",
		"At the start of the game, each team gets two riddles.": "На старте игры каждая команда получает по две загадки.",
		"Buy inventory": "Покупайте инвентарь",
		"Inventory description": "Чтобы быстрее и эффективнее собирать мусор, вы можете купить инвентарь на заработанные баллы.",
		"Make checks during the game": "Делайте чекины во время игры",
		"Checkins description": "Чекины — отметки с фотографиями на месте уборки. Делая чекины, вы участвуете в создании интерактивной карты мест скопления мусора, что может помочь в дальнейшем поддержании чистоты этого места.",
		"Participate in contests": "Участвуйте в конкурсах",
		"Do photo hunting": "Занимайтесь фотоохотой",
		"Default security rules": "Тут должна быть техника безопасности"
	},
	"Game tasks": {
		"Task": "Задача",
		"Date": "Дата",
		"Manager": "Ответственный",
		"Result": "Результат",
		"Confirm": "Подтвердить",
		"Add task": "Добавить задачу",
		"Remove task": "Удалить задачу"
	},
	"Game formats": {
		"Small": "Малый",
		"Medium": "Средний",
		"Big": "Большой",
		"Max": "Максимальный",
		"Copyrights": "Символика ЧИ",
		"Mobile app": "Моб. приложение",
		"Website": "Сайт",
		"Bio toilets": "Биотуалеты",
		"Scene": "Сцена",
		"Photohunt": "Фотоохота"
	},
	"Create tournament": {
		"errors": {
			"This tag belongs to another tournament": "Введенный тег уже используется для другого турнира"
		},
		"input": {
			"Name": "Название турнира",
			"Tag": "Тег турнира",
			"Poster": "Афиша",
			"Date": "Дата проведения",
			"Time": "Время проведения",
			"Rules": "Техника безопасности",
			"Description": "Описание турнира",
			"Game rules": "Правила игры и техника безопасности"
		},
		"status": {
			"UNAPPROVED": "Ожидает проверки",
			"APPROVED": "Прошел проверку",
			"REGISTRATION_OPENED": "Регистрация открыта",
			"REGISTRATION_CLOSED": "Регистрация закрыта",
			"STARTED": "Начат",
			"TESTING": "Тестирование",
			"COUNTING_RESULTS": "Подсчет результатов",
			"FINISHED": "Завершена"
		},
		"title": "Создание турнира",
		"description": "Lorem ipsum dolor sit amet, consectetur adipisicing elit, sed do eiusmod tempor incididunt ut labore et dolore magna aliqua. Ut enim ad minim veniam, quis nostrud exercitation ullamco laboris nisi ut aliquip ex ea commodo consequat.",
		"Button": "Создать турнир",
		"Tournament passport": {
			"title": "Паспорт турнира",
			"description": "Lorem ipsum dolor sit amet, consectetur adipisicing elit."
		},
		"Fill information about the tournament": "Заполните информацию о турнире",
		"Main settings": {
			"title": "Основная информация",
			"subtitle": "Текст заголовка и описание"
		},
		"Additional settings": {
			"title": "Дополнительные настройки"
		},
		"Admin settings": {
			"title": "Настройки администратора"
		},
		"footer": "Lorem ipsum dolor sit amet, consectetur adipisicing elit, sed do eiusmod\ntempor incididunt ut labore et dolore magna aliqua. Ut enim ad minim veniam,\nquis nostrud exercitation ullamco laboris nisi ut aliquip ex ea commodo\nconsequat. Duis aute irure dolor in reprehenderit in voluptate velit esse\ncillum dolore eu fugiat nulla pariatur. Excepteur sint occaecat cupidatat non\nproident, sunt in culpa qui officia deserunt mollit anim id est laborum."
	},
	"Create game": {
		"errors": {
			"You must specify either regionId or region": "Выберите регион из списка или введите его вручную",
			"You must specify either cityId or city": "Выберите город из списка или введите его вручную",
			"This tag belongs to another game": "Введенный тег уже используется для другой игры"
		},
		"input": {
			"Name": "Название игры",
			"Tag": "Тег игры",
			"Poster": "Афиша",
			"Date": "Дата проведения",
			"Time": "Время проведения",
			"Country": "Страна",
			"Region": "Регион",
			"City": "Город",
			"Main organizer": "Главный организатор",
			"Contact person": "Контактное лицо",
			"Staff coordinates": "Координаты штаба",
			"Rules": "Техника безопасности",
			"Description": "Описание игры",
			"VK group": "Адрес группы ВК",
			"FB group": "Адрес группы FB",
			"Game rules": "Правила игры и техника безопасности",
			"Tooltip for the name of the game": "В соответствии с пунктом 2.3.4 Договора об использовании методики “Чистых Игр”",
			"Tooltip for the tag": "Тег игры определяет адрес вашей игры на сайте",
			"Tooltip for the main organizer": "Имеет доступ ко всем функциям управления игрой и к паспорту игры"
		},
		"status": {
			"UNAPPROVED": "Ожидает проверки",
			"APPROVED": "Прошла проверку",
			"REGISTRATION_OPENED": "Регистрация открыта",
			"REGISTRATION_CLOSED": "Регистрация закрыта",
			"STARTED": "Начата",
			"TESTING": "Тестирование",
			"COUNTING_RESULTS": "Подсчет результатов",
			"FINISHED": "Завершена"
		},
		"title": "Создание игры",
		"description": "Lorem ipsum dolor sit amet, consectetur adipisicing elit, sed do eiusmod tempor incididunt ut labore et dolore magna aliqua. Ut enim ad minim veniam, quis nostrud exercitation ullamco laboris nisi ut aliquip ex ea commodo consequat.",
		"Choose game type": "Выберите тип игры",
		"Formats": "Форматы",
		"Choose kind": {
			"title": "Выберите вид",
			"description": "Lorem ipsum dolor sit amet, consectetur adipisicing elit, sed do eiusmod\ntempor incididunt ut labore et dolore magna aliqua. Ut enim ad minim veniam,\nquis nostrud exercitation ullamco laboris nisi ut aliquip ex ea commodo\nconsequat. Duis aute irure dolor in reprehenderit in voluptate velit esse\ncillum dolore eu fugiat nulla pariatur. Excepteur sint occaecat cupidatat non\nproident, sunt in culpa qui officia deserunt mollit anim id est laborum."
		},
		"Choose format": {
			"title": "Выберите формат игры",
			"description": "Lorem ipsum dolor sit amet, consectetur adipisicing elit"
		},
		"Create without format": {
			"title": "Создать без формата",
			"description": "Ut enim ad minim veniam, quis nostrud exercitation ullamco laboris nisi ut aliquip ex ea commodo consequat"
		},
		"Button": "Создать игру",
		"Quest": "Квест",
		"Game passport": {
			"title": "Паспорт игры",
			"description": "Lorem ipsum dolor sit amet, consectetur adipisicing elit."
		},
		"Fill information about the game": "Заповніть інформацію по грі",
		"Main settings": {
			"title": "Головна інформація",
			"subtitle": "Заповніть наступні дані для того, щоб зареєструвати гру. Звертайте увагу на інформаційні підказки!"
		},
		"Additional settings": {
			"title": "Додадкові настройки"
		},
		"Admin settings": {
			"title": "Настройки адміністратора"
		},
		"footer": "Lorem ipsum dolor sit amet, consectetur adipisicing elit, sed do eiusmod\ntempor incididunt ut labore et dolore magna aliqua. Ut enim ad minim veniam,\nquis nostrud exercitation ullamco laboris nisi ut aliquip ex ea commodo\nconsequat. Duis aute irure dolor in reprehenderit in voluptate velit esse\ncillum dolore eu fugiat nulla pariatur. Excepteur sint occaecat cupidatat non\nproident, sunt in culpa qui officia deserunt mollit anim id est laborum."
	},
	"License agreement": {
		"title": "Договір про використання\nметодики Чистих Ігор",
		"description": "Для того, щоб стати організатором, будь ласка, уважно прочитайте й прийміть дану угоду.",
		"subtitle": "Організатор зобов'язуєтьсядотримуватися таких умов",
		"text": "Для того, щоб стати організатором Чистої Гри, вам необхідно погодитися зі всіма пунктами та підписати некомерційну угоду. Шаблон договору ви можете завантажити по ссилці нижче.",
		"Button description": "Подписану угоду ви можете завантажити, натиснувши на кнопку нижче.",
		"Button": "Стати організатором",
		"Request has been successfully sent": "Ви успішно відправили запит. Будь ласка, дочекайтеся його обробки модератором сайту.",
		"Request already sent": "Ви вже відпраивли запит. Будь ласка, дочекайтеся його обробки модератором сайту."
	},
	"Organizers": {
		"title": "Организаторы",
		"Add organizer": "Добавить организатора",
		"Remove organizer": "Удалить организатора",
		"PR manager": "Ответственный за PR / SMM",
		"Volunteers manager": "Координатор волонтеров",
		"Main organizer": "Главный организатор",
		"Organizer assistant": "Помощник главного организатора"
	},
	"Game passport": {
		"title": "Паспорт игры",
		"subtitle": "Заполните все поля во вкладках",
		"Task": "Задача",
		"Manager": "Ответственный",
		"Result": "Результат",
		"Confirm": "Подтвердить",
		"Add task": "Добавить задачу"
	},
	"About": {
		"title": "О мероприятии",
		"Common": "Общие",
		"Vkontakte": "Вконтакте",
		"Facebook": "Facebook",
		"Posts": "Публикации о мероприятии",
		"Photos": "Фото с игры",
		"Videos": "Видео с игры",
		"Letters": "Благодарственные письма",
		"Documents": "Отчетные документы по игре",
		"Date": "Дата проведения",
		"Time": "Время проведения",
		"Poster": "Афиша",
		"VK group": "Группа ВК"
	},
	"Game modules": {
		"title": "Ігрові модулі",
		"Garbage purchase": "Скупка сміття",
		"Artifact purchase": "Скупка артефакту",
		"Artifacts": "інші активності",
		"Inventory sales": "Продаж інвентарю",
		"Inventory": "Інвентар",
		"Purchase": "Скупка",
		"Correction": "Корекція",
		"correction placeholder": "Корекція заповнювача",
		"Checkins": "Чекинi",
		"Checkin": "Чекин",
		"Photos": "Фотополювання",
		"Photohunt": "Фотополювання",
		"Riddles": "Загадки",
		"Riddle": "Загадка",
		"Mixed garbage": "Змішане сміття",
		"Plastic": "Пластик",
		"Metal": "Метал",
		"Glass": "Скло",
		"Batteries": "Батарейки",
		"Cans": "Алюмінієві банки",
		"Tires": "Шини",
		"Big garbage": "Велике сміття",
		"Max points for one artifact": "Максимальний бал за артефакт",
		"Max points for one riddle": "Максимальний бал за загадку",
		"Truck": "Візок",
		"Rake": "Граблі",
		"Shovel": "Лопата",
		"Stretcher": "Носилки",
		"Net": "Сачок",
		"Add check-ins to the game": "Додати чекинi до гри",
		"Check-in price": "Вартість чекина",
		"Photohunt price": "Вартість фотополювання",
		"Photohunt repost price": "Вартість репосту фотополювання в соц.мержі",
		"Check-in repost price": "Вартість репосту чекин",
		"Add photos to the game": "Додати фотополювання до гри",
		"Add riddles to the game": "Додати загадки до гри"
	},
	"Tech modules": {
		"title": "Технические модули",
		"Rain cover": "Укрытие от дождя",
		"Power supply": "Электроснабжение",
		"Toilet": "Туалет",
		"Not-provided": "Не предусмотрено",
		"Bio-toilet": "Био туалет",
		"Camp-toilet": "Походный туалет",
		"Generator": "Генератор",
		"Raincoat": "Дождевик",
		"Tent": "Шатер",
		"Tent-star": "Шатер-звезда"
	},
	"AHCH": {
		"title": "АХЧ"
	},
	"Specialists": {
		"title": "Специалисты",
		"Add specialist": "Добавить специалиста",
		"Remove specialist": "Удалить специалиста"
	},
	"Sponsors": {
		"title": "Спонсоры",
		"Add sponsor": "Добавить спонсора",
		"Remove sponsor": "Удалить спонсора"
	},
	"Place": {
		"title": "Место"
	},
	"Volunteers": {
		"title": "Волонтеры",
		"Coordinator tasks": "Задачи координатора",
		"List of volunteers": "Список волонтеров",
		"Add volunteer": "Добавить волонтера",
		"Remove volunteer": "Удалить волонтера"
	},
	"Polygraphy": {
		"title": "Полиграфия",
		"Recommended polygraphy": "Рекомендуемая полиграфия",
		"Official polygraphy": "Опциональная полиграфия",
		"Layout link": "Ссылка на макет",
		"Format": "Формат",
		"Paper type": "Тип бумаги",
		"Edition": "Тираж"
	},
	"Scenario": {
		"title": "Сценарий"
	},
	"Post-production": {
		"title": "Пост-продакшн"
	},
	"Reward": {
		"title": "Награждение"
	},
	"Guests": {
		"title": "Гости",
		"Position": "Должность",
		"Invited": "Приглашен",
		"Came": "Пришел",
		"Not_came": "Не пришел",
		"Set status": "Укажите статус"
	},
	"Other": {
		"title": "Прочее"
	},
	"General sponsor": "Генеральный спонсор",
	"Sponsor": "Спонсор",
	"Info partner": "Информационный партнер",
	"Partner": "Партнер",
	"Error": "Ошибка",
	"Errors": {
		"Access denied": "Доступ заборонено",
		"Action has been blocked": "Операцію було заблоковано. Зверніться до служби технічної підтримки.",
		"Invalid email or password": "Неправильний пароль та/або адреса ел. пошти",
		"Please set password": "Необхідно вказати пароль.",
		"The request failed, please try again later or contact technical support": "Не вдалося виконати запит, спробуйте повторити його пізніше або зверніться до служби технічної підтримки.",
		"First name is too short": "Введенне ім'я занадто коротке",
		"You should upload two photos to make check-in": "Необхідно завантажити дві фотографії, щоб зробити чекин",
		"You should upload a photo to make photohunt": "Не можна створити фотополювання не завантаживши фотографію",
		"You must select at least one item with non-zero quantity": "Ви повинні обрати хоча б один товар з нульовою кількістю",
		"Module can't be removed if it has at least one purchase": "Модуль не може бути видалено, якщо він використовається хоча б в одній скупці",
		"Not enough game points": "Не вистачає ігрових балів",
		"This activity is not allowed at this game": "Ця дія недоступна в поточній грі.",
		"This name belongs to another team": "Введене ім'я належить іншій команді",
		"This number belongs to another team": "Введенний номер належить іншій команді"
	}
}